%!PS-Adobe-3.0 EPSF-3.0
%%Creator: MATLAB, The Mathworks, Inc.
%%Title: U:\drafts\HSCC08\figures\pZplotEX3c.eps
%%CreationDate: 10/03/2007  14:09:37
%%DocumentNeededFonts: Helvetica
%%DocumentProcessColors: Cyan Magenta Yellow Black
%%LanguageLevel: 2
%%Pages: 1
%%BoundingBox:   126   278   466   562
%%EndComments

%%BeginProlog
% MathWorks dictionary
/MathWorks 160 dict begin
% definition operators
/bdef {bind def} bind def
/ldef {load def} bind def
/xdef {exch def} bdef
/xstore {exch store} bdef
% operator abbreviations
/c  /clip ldef
/cc /concat ldef
/cp /closepath ldef
/gr /grestore ldef
/gs /gsave ldef
/mt /moveto ldef
/np /newpath ldef
/cm /currentmatrix ldef
/sm /setmatrix ldef
/rm /rmoveto ldef
/rl /rlineto ldef
/s {show newpath} bdef
/sc {setcmykcolor} bdef
/sr /setrgbcolor ldef
/sg /setgray ldef
/w /setlinewidth ldef
/j /setlinejoin ldef
/cap /setlinecap ldef
/rc {rectclip} bdef
/rf {rectfill} bdef
% page state control
/pgsv () def
/bpage {/pgsv save def} bdef
/epage {pgsv restore} bdef
/bplot /gsave ldef
/eplot {stroke grestore} bdef
% orientation switch
/portraitMode 0 def /landscapeMode 1 def /rotateMode 2 def
% coordinate system mappings
/dpi2point 0 def
% font control
/FontSize 0 def
/FMS {/FontSize xstore findfont [FontSize 0 0 FontSize neg 0 0]
  makefont setfont} bdef
/ISOLatin1Encoding where {pop /WindowsLatin1Encoding 256 array bdef
ISOLatin1Encoding WindowsLatin1Encoding copy pop
/.notdef/.notdef/quotesinglbase/florin/quotedblbase/ellipsis/dagger
/daggerdbl/circumflex/perthousand/Scaron/guilsinglleft/OE/.notdef/.notdef
/.notdef/.notdef/quoteleft/quoteright/quotedblleft/quotedblright/bullet
/endash/emdash/tilde/trademark/scaron/guilsinglright/oe/.notdef/.notdef
/Ydieresis WindowsLatin1Encoding 128 32 getinterval astore pop}
{/WindowsLatin1Encoding StandardEncoding bdef} ifelse
/reencode {exch dup where {pop load} {pop StandardEncoding} ifelse
  exch dup 3 1 roll findfont dup length dict begin
  { 1 index /FID ne {def}{pop pop} ifelse } forall
  /Encoding exch def currentdict end definefont pop} bdef
/isroman {findfont /CharStrings get /Agrave known} bdef
/FMSR {3 1 roll 1 index dup isroman {reencode} {pop pop} ifelse
  exch FMS} bdef
/csm {1 dpi2point div -1 dpi2point div scale neg translate
 dup landscapeMode eq {pop -90 rotate}
  {rotateMode eq {90 rotate} if} ifelse} bdef
% line types: solid, dotted, dashed, dotdash
/SO { [] 0 setdash } bdef
/DO { [.5 dpi2point mul 4 dpi2point mul] 0 setdash } bdef
/DA { [6 dpi2point mul] 0 setdash } bdef
/DD { [.5 dpi2point mul 4 dpi2point mul 6 dpi2point mul 4
  dpi2point mul] 0 setdash } bdef
% macros for lines and objects
/L {lineto stroke} bdef
/MP {3 1 roll moveto 1 sub {rlineto} repeat} bdef
/AP {{rlineto} repeat} bdef
/PDlw -1 def
/W {/PDlw currentlinewidth def setlinewidth} def
/PP {closepath eofill} bdef
/DP {closepath stroke} bdef
/MR {4 -2 roll moveto dup  0 exch rlineto exch 0 rlineto
  neg 0 exch rlineto closepath} bdef
/FR {MR stroke} bdef
/PR {MR fill} bdef
/L1i {{currentfile picstr readhexstring pop} image} bdef
/tMatrix matrix def
/MakeOval {newpath tMatrix currentmatrix pop translate scale
0 0 1 0 360 arc tMatrix setmatrix} bdef
/FO {MakeOval stroke} bdef
/PO {MakeOval fill} bdef
/PD {currentlinewidth 2 div 0 360 arc fill
   PDlw -1 eq not {PDlw w /PDlw -1 def} if} def
/FA {newpath tMatrix currentmatrix pop translate scale
  0 0 1 5 -2 roll arc tMatrix setmatrix stroke} bdef
/PA {newpath tMatrix currentmatrix pop	translate 0 0 moveto scale
  0 0 1 5 -2 roll arc closepath tMatrix setmatrix fill} bdef
/FAn {newpath tMatrix currentmatrix pop translate scale
  0 0 1 5 -2 roll arcn tMatrix setmatrix stroke} bdef
/PAn {newpath tMatrix currentmatrix pop translate 0 0 moveto scale
  0 0 1 5 -2 roll arcn closepath tMatrix setmatrix fill} bdef
/vradius 0 def /hradius 0 def /lry 0 def
/lrx 0 def /uly 0 def /ulx 0 def /rad 0 def
/MRR {/vradius xdef /hradius xdef /lry xdef /lrx xdef /uly xdef
  /ulx xdef newpath tMatrix currentmatrix pop ulx hradius add uly
  vradius add translate hradius vradius scale 0 0 1 180 270 arc 
  tMatrix setmatrix lrx hradius sub uly vradius add translate
  hradius vradius scale 0 0 1 270 360 arc tMatrix setmatrix
  lrx hradius sub lry vradius sub translate hradius vradius scale
  0 0 1 0 90 arc tMatrix setmatrix ulx hradius add lry vradius sub
  translate hradius vradius scale 0 0 1 90 180 arc tMatrix setmatrix
  closepath} bdef
/FRR {MRR stroke } bdef
/PRR {MRR fill } bdef
/MlrRR {/lry xdef /lrx xdef /uly xdef /ulx xdef /rad lry uly sub 2 div def
  newpath tMatrix currentmatrix pop ulx rad add uly rad add translate
  rad rad scale 0 0 1 90 270 arc tMatrix setmatrix lrx rad sub lry rad
  sub translate rad rad scale 0 0 1 270 90 arc tMatrix setmatrix
  closepath} bdef
/FlrRR {MlrRR stroke } bdef
/PlrRR {MlrRR fill } bdef
/MtbRR {/lry xdef /lrx xdef /uly xdef /ulx xdef /rad lrx ulx sub 2 div def
  newpath tMatrix currentmatrix pop ulx rad add uly rad add translate
  rad rad scale 0 0 1 180 360 arc tMatrix setmatrix lrx rad sub lry rad
  sub translate rad rad scale 0 0 1 0 180 arc tMatrix setmatrix
  closepath} bdef
/FtbRR {MtbRR stroke } bdef
/PtbRR {MtbRR fill } bdef
/stri 6 array def /dtri 6 array def
/smat 6 array def /dmat 6 array def
/tmat1 6 array def /tmat2 6 array def /dif 3 array def
/asub {/ind2 exch def /ind1 exch def dup dup
  ind1 get exch ind2 get sub exch } bdef
/tri_to_matrix {
  2 0 asub 3 1 asub 4 0 asub 5 1 asub
  dup 0 get exch 1 get 7 -1 roll astore } bdef
/compute_transform {
  dmat dtri tri_to_matrix tmat1 invertmatrix 
  smat stri tri_to_matrix tmat2 concatmatrix } bdef
/ds {stri astore pop} bdef
/dt {dtri astore pop} bdef
/db {2 copy /cols xdef /rows xdef mul dup 3 mul string
  currentfile 
  3 index 0 eq {/ASCIIHexDecode filter}
  {/ASCII85Decode filter 3 index 2 eq {/RunLengthDecode filter} if }
  ifelse exch readstring pop
  dup 0 3 index getinterval /rbmap xdef
  dup 2 index dup getinterval /gbmap xdef
  1 index dup 2 mul exch getinterval /bbmap xdef pop pop}bdef
/it {gs np dtri aload pop moveto lineto lineto cp c
  cols rows 8 compute_transform 
  rbmap gbmap bbmap true 3 colorimage gr}bdef
/il {newpath moveto lineto stroke}bdef
currentdict end def
%%EndProlog

%%BeginSetup
MathWorks begin

0 cap

end
%%EndSetup

%%Page: 1 1
%%BeginPageSetup
%%PageBoundingBox:   126   278   466   562
MathWorks begin
bpage
%%EndPageSetup

%%BeginObject: obj1
bplot

/dpi2point 12 def
portraitMode 1512 6744 csm

    0     0  4089  3404 rc
22 dict begin %Colortable dictionary
/c0 { 0.000000 0.000000 0.000000 sr} bdef
/c1 { 1.000000 1.000000 1.000000 sr} bdef
/c2 { 0.900000 0.000000 0.000000 sr} bdef
/c3 { 0.000000 0.820000 0.000000 sr} bdef
/c4 { 0.000000 0.000000 0.800000 sr} bdef
/c5 { 0.910000 0.820000 0.320000 sr} bdef
/c6 { 1.000000 0.260000 0.820000 sr} bdef
/c7 { 0.000000 0.820000 0.820000 sr} bdef
c0
1 j
1 sg
   0    0 4090 3405 rf
18 w
0 1533 -1376 -702 0 -1534 3701 2491 4 MP
PP
1376 703 0 1533 -1376 -702 0 -1534 3701 2491 5 MP stroke
1376 703 1793 -539 -1375 -703 1907 3030 4 MP
PP
-1794 539 1376 703 1793 -539 -1375 -703 1907 3030 5 MP stroke
0 1533 1793 -538 0 -1534 532 2327 4 MP
PP
-1793 539 0 1533 1793 -538 0 -1534 532 2327 5 MP stroke
12 w
DO
0 sg
1907 3030 mt  532 2327 L
 532 2327 mt  532  793 L
2804 2760 mt 1428 2058 L
1428 2058 mt 1428  524 L
3701 2491 mt 2325 1788 L
2325 1788 mt 2325  255 L
1907 3030 mt 3701 2491 L
3701 2491 mt 3701  957 L
1219 2678 mt 3013 2139 L
3013 2139 mt 3013  606 L
 532 2327 mt 2325 1788 L
2325 1788 mt 2325  255 L
 532 2327 mt 2325 1788 L
2325 1788 mt 3701 2491 L
 532 1688 mt 2325 1149 L
2325 1149 mt 3701 1852 L
 532 1049 mt 2325  510 L
2325  510 mt 3701 1213 L
SO
18 w
1907 3030 mt 3701 2491 L
1907 3030 mt  532 2327 L
 532 2327 mt  532  793 L
1907 3030 mt 1949 3051 L
%%IncludeResource: font Helvetica
/Helvetica /WindowsLatin1Encoding 180 FMSR

1980 3234 mt 
(-5) s
2804 2760 mt 2846 2781 L
2876 2964 mt 
(0) s
3701 2491 mt 3742 2512 L
3773 2695 mt 
(5) s
1907 3030 mt 1863 3043 L
1624 3220 mt 
(-5) s
1219 2678 mt 1175 2692 L
1042 2869 mt 
(0) s
 532 2327 mt  487 2341 L
 354 2517 mt 
(5) s
 532 2327 mt  490 2306 L
 359 2356 mt 
(0) s
 532 1688 mt  490 1667 L
 109 1717 mt 
(0.05) s
 532 1049 mt  490 1028 L
 209 1078 mt 
(0.1) s
gs 532 255 3170 2776 rc
1 sg
-67 -44 87 -16 3487 2484 3 MP
PP
/c8 { 0.000000 0.000000 1.000000 sr} bdef
c8
3487 2484 mt 3574 2468 L
3574 2468 mt 3507 2424 L
1 sg
-67 -43 87 -4 3420 2428 3 MP
PP
c8
3420 2428 mt 3507 2424 L
3507 2424 mt 3440 2381 L
1 sg
87 -4 -67 -56 3487 2484 3 MP
PP
c8
3487 2484 mt 3420 2428 L
3420 2428 mt 3507 2424 L
1 sg
-67 -56 87 -17 3400 2501 3 MP
PP
c8
3400 2501 mt 3487 2484 L
3487 2484 mt 3420 2428 L
1 sg
86 13 -66 -60 3420 2428 3 MP
PP
c8
3420 2428 mt 3354 2368 L
3354 2368 mt 3440 2381 L
1 sg
-66 -38 86 13 3354 2368 3 MP
PP
c8
3354 2368 mt 3440 2381 L
3440 2381 mt 3374 2343 L
1 sg
-66 -60 87 0 3333 2428 3 MP
PP
c8
3333 2428 mt 3420 2428 L
3420 2428 mt 3354 2368 L
1 sg
87 0 -67 -73 3400 2501 3 MP
PP
c8
3400 2501 mt 3333 2428 L
3333 2428 mt 3420 2428 L
1 sg
-67 -73 87 -23 3313 2524 3 MP
PP
c8
3313 2524 mt 3400 2501 L
3400 2501 mt 3333 2428 L
1 sg
-67 -34 87 27 3287 2316 3 MP
PP
c8
3287 2316 mt 3374 2343 L
3374 2343 mt 3307 2309 L
1 sg
87 27 -67 -52 3354 2368 3 MP
PP
c8
3354 2368 mt 3287 2316 L
3287 2316 mt 3374 2343 L
1 sg
87 27 -66 -87 3333 2428 3 MP
PP
c8
3333 2428 mt 3267 2341 L
3267 2341 mt 3354 2368 L
1 sg
-67 -52 87 27 3267 2341 3 MP
PP
c8
3267 2341 mt 3354 2368 L
3354 2368 mt 3287 2316 L
1 sg
-66 -87 86 -8 3247 2436 3 MP
PP
c8
3247 2436 mt 3333 2428 L
3333 2428 mt 3267 2341 L
1 sg
86 -8 -66 -88 3313 2524 3 MP
PP
c8
3313 2524 mt 3247 2436 L
3247 2436 mt 3333 2428 L
1 sg
-66 -88 87 -26 3226 2550 3 MP
PP
c8
3226 2550 mt 3313 2524 L
3313 2524 mt 3247 2436 L
1 sg
87 30 -67 -37 3287 2316 3 MP
PP
c8
3287 2316 mt 3220 2279 L
3220 2279 mt 3307 2309 L
1 sg
-66 -34 87 30 3220 2279 3 MP
PP
c8
3220 2279 mt 3307 2309 L
3307 2309 mt 3241 2275 L
1 sg
-67 -34 87 30 3087 2211 3 MP
PP
c8
3087 2211 mt 3174 2241 L
3174 2241 mt 3107 2207 L
1 sg
87 30 -67 -34 3154 2245 3 MP
PP
c8
3154 2245 mt 3087 2211 L
3087 2211 mt 3174 2241 L
1 sg
-67 -34 87 30 3154 2245 3 MP
PP
c8
3154 2245 mt 3241 2275 L
3241 2275 mt 3174 2241 L
1 sg
87 30 -66 -34 3220 2279 3 MP
PP
c8
3220 2279 mt 3154 2245 L
3154 2245 mt 3241 2275 L
1 sg
-66 -34 86 85 3134 2194 3 MP
PP
c8
3134 2194 mt 3220 2279 L
3220 2279 mt 3154 2245 L
1 sg
86 85 -66 -61 3200 2255 3 MP
PP
c8
3200 2255 mt 3134 2194 L
3134 2194 mt 3220 2279 L
1 sg
-67 -37 87 61 3200 2255 3 MP
PP
c8
3200 2255 mt 3287 2316 L
3287 2316 mt 3220 2279 L
1 sg
87 61 -67 -86 3267 2341 3 MP
PP
c8
3267 2341 mt 3200 2255 L
3200 2255 mt 3287 2316 L
1 sg
87 26 -67 -121 3247 2436 3 MP
PP
c8
3247 2436 mt 3180 2315 L
3180 2315 mt 3267 2341 L
1 sg
-67 -86 87 26 3180 2315 3 MP
PP
c8
3180 2315 mt 3267 2341 L
3267 2341 mt 3200 2255 L
1 sg
-67 -121 87 -23 3160 2459 3 MP
PP
c8
3160 2459 mt 3247 2436 L
3247 2436 mt 3180 2315 L
1 sg
87 -23 -66 -91 3226 2550 3 MP
PP
c8
3226 2550 mt 3160 2459 L
3160 2459 mt 3247 2436 L
1 sg
-66 -91 86 -26 3140 2576 3 MP
PP
c8
3140 2576 mt 3226 2550 L
3226 2550 mt 3160 2459 L
1 sg
-67 -34 87 137 3047 2057 3 MP
PP
c8
3047 2057 mt 3134 2194 L
3134 2194 mt 3067 2160 L
1 sg
87 137 -66 -118 3113 2175 3 MP
PP
c8
3113 2175 mt 3047 2057 L
3047 2057 mt 3134 2194 L
1 sg
-66 -61 87 80 3113 2175 3 MP
PP
c8
3113 2175 mt 3200 2255 L
3200 2255 mt 3134 2194 L
1 sg
87 85 -67 -34 3134 2194 3 MP
PP
c8
3134 2194 mt 3067 2160 L
3067 2160 mt 3154 2245 L
1 sg
-66 -31 86 30 3021 2177 3 MP
PP
c8
3021 2177 mt 3107 2207 L
3107 2207 mt 3041 2176 L
1 sg
86 30 -66 -34 3087 2211 3 MP
PP
c8
3087 2211 mt 3021 2177 L
3021 2177 mt 3107 2207 L
1 sg
-67 -34 87 85 3067 2160 3 MP
PP
c8
3067 2160 mt 3154 2245 L
3154 2245 mt 3087 2211 L
1 sg
87 80 -67 -140 3180 2315 3 MP
PP
c8
3180 2315 mt 3113 2175 L
3113 2175 mt 3200 2255 L
1 sg
87 0 -67 -144 3160 2459 3 MP
PP
c8
3160 2459 mt 3093 2315 L
3093 2315 mt 3180 2315 L
1 sg
-67 -140 87 0 3093 2315 3 MP
PP
c8
3093 2315 mt 3180 2315 L
3180 2315 mt 3113 2175 L
1 sg
87 -26 -67 -91 3140 2576 3 MP
PP
c8
3140 2576 mt 3073 2485 L
3073 2485 mt 3160 2459 L
1 sg
-67 -144 87 -26 3073 2485 3 MP
PP
c8
3073 2485 mt 3160 2459 L
3160 2459 mt 3093 2315 L
1 sg
-67 -91 87 -26 3053 2602 3 MP
PP
c8
3053 2602 mt 3140 2576 L
3140 2576 mt 3073 2485 L
1 sg
87 158 -67 -55 3047 2057 3 MP
PP
c8
3047 2057 mt 2980 2002 L
2980 2002 mt 3067 2160 L
1 sg
-67 -34 87 158 2980 2002 3 MP
PP
c8
2980 2002 mt 3067 2160 L
3067 2160 mt 3000 2126 L
1 sg
87 85 -67 -34 3067 2160 3 MP
PP
c8
3067 2160 mt 3000 2126 L
3000 2126 mt 3087 2211 L
1 sg
-67 -25 87 13 2821 2114 3 MP
PP
c8
2821 2114 mt 2908 2127 L
2908 2127 mt 2841 2102 L
1 sg
87 13 -66 -10 2887 2124 3 MP
PP
c8
2887 2124 mt 2821 2114 L
2821 2114 mt 2908 2127 L
1 sg
-66 -24 87 27 2887 2124 3 MP
PP
c8
2887 2124 mt 2974 2151 L
2974 2151 mt 2908 2127 L
1 sg
87 27 -67 -20 2954 2144 3 MP
PP
c8
2954 2144 mt 2887 2124 L
2887 2124 mt 2974 2151 L
1 sg
87 32 -67 -33 3021 2177 3 MP
PP
c8
3021 2177 mt 2954 2144 L
2954 2144 mt 3041 2176 L
1 sg
-67 -25 87 32 2954 2144 3 MP
PP
c8
2954 2144 mt 3041 2176 L
3041 2176 mt 2974 2151 L
1 sg
-66 -34 87 85 3000 2126 3 MP
PP
c8
3000 2126 mt 3087 2211 L
3087 2211 mt 3021 2177 L
1 sg
86 58 -66 -198 3093 2315 3 MP
PP
c8
3093 2315 mt 3027 2117 L
3027 2117 mt 3113 2175 L
1 sg
-66 -118 86 58 3027 2117 3 MP
PP
c8
3027 2117 mt 3113 2175 L
3113 2175 mt 3047 2057 L
1 sg
87 -25 -67 -145 3073 2485 3 MP
PP
c8
3073 2485 mt 3006 2340 L
3006 2340 mt 3093 2315 L
1 sg
-66 -198 87 -25 3006 2340 3 MP
PP
c8
3006 2340 mt 3093 2315 L
3093 2315 mt 3027 2117 L
1 sg
87 -26 -67 -91 3053 2602 3 MP
PP
c8
3053 2602 mt 2986 2511 L
2986 2511 mt 3073 2485 L
1 sg
-67 -145 87 -26 2986 2511 3 MP
PP
c8
2986 2511 mt 3073 2485 L
3073 2485 mt 3006 2340 L
1 sg
-67 -91 87 -26 2966 2628 3 MP
PP
c8
2966 2628 mt 3053 2602 L
3053 2602 mt 2986 2511 L
1 sg
-67 -55 87 145 2960 1912 3 MP
PP
c8
2960 1912 mt 3047 2057 L
3047 2057 mt 2980 2002 L
1 sg
87 145 -67 -205 3027 2117 3 MP
PP
c8
3027 2117 mt 2960 1912 L
2960 1912 mt 3047 2057 L
1 sg
87 86 -67 -34 2934 2092 3 MP
PP
c8
2934 2092 mt 2867 2058 L
2867 2058 mt 2954 2144 L
1 sg
87 230 -67 -140 2960 1912 3 MP
PP
c8
2960 1912 mt 2893 1772 L
2893 1772 mt 2980 2002 L
1 sg
-66 -35 87 230 2893 1772 3 MP
PP
c8
2893 1772 mt 2980 2002 L
2980 2002 mt 2914 1967 L
1 sg
86 159 -66 -35 2980 2002 3 MP
PP
c8
2980 2002 mt 2914 1967 L
2914 1967 mt 3000 2126 L
1 sg
-66 -34 86 159 2914 1967 3 MP
PP
c8
2914 1967 mt 3000 2126 L
3000 2126 mt 2934 2092 L
1 sg
-67 -33 87 85 2934 2092 3 MP
PP
c8
2934 2092 mt 3021 2177 L
3021 2177 mt 2954 2144 L
1 sg
87 85 -66 -34 3000 2126 3 MP
PP
c8
3000 2126 mt 2934 2092 L
2934 2092 mt 3021 2177 L
1 sg
-67 -205 87 -5 2940 2122 3 MP
PP
c8
2940 2122 mt 3027 2117 L
3027 2117 mt 2960 1912 L
1 sg
-67 -20 87 86 2867 2058 3 MP
PP
c8
2867 2058 mt 2954 2144 L
2954 2144 mt 2887 2124 L
1 sg
87 -5 -66 -218 3006 2340 3 MP
PP
c8
3006 2340 mt 2940 2122 L
2940 2122 mt 3027 2117 L
1 sg
86 -26 -66 -145 2986 2511 3 MP
PP
c8
2986 2511 mt 2920 2366 L
2920 2366 mt 3006 2340 L
1 sg
-66 -218 86 -26 2920 2366 3 MP
PP
c8
2920 2366 mt 3006 2340 L
3006 2340 mt 2940 2122 L
1 sg
87 -27 -67 -90 2966 2628 3 MP
PP
c8
2966 2628 mt 2899 2538 L
2899 2538 mt 2986 2511 L
1 sg
-66 -145 87 -27 2899 2538 3 MP
PP
c8
2899 2538 mt 2986 2511 L
2986 2511 mt 2920 2366 L
1 sg
-67 -90 87 -29 2879 2657 3 MP
PP
c8
2879 2657 mt 2966 2628 L
2966 2628 mt 2899 2538 L
1 sg
-67 -35 87 236 2827 1731 3 MP
PP
c8
2827 1731 mt 2914 1967 L
2914 1967 mt 2847 1932 L
1 sg
87 236 -66 -41 2893 1772 3 MP
PP
c8
2893 1772 mt 2827 1731 L
2827 1731 mt 2914 1967 L
1 sg
-67 -34 87 160 2847 1932 3 MP
PP
c8
2847 1932 mt 2934 2092 L
2934 2092 mt 2867 2058 L
1 sg
87 160 -67 -35 2914 1967 3 MP
PP
c8
2914 1967 mt 2847 1932 L
2847 1932 mt 2934 2092 L
1 sg
87 79 -67 -289 2940 2122 3 MP
PP
c8
2940 2122 mt 2873 1833 L
2873 1833 mt 2960 1912 L
1 sg
-67 -140 87 79 2873 1833 3 MP
PP
c8
2873 1833 mt 2960 1912 L
2960 1912 mt 2893 1772 L
1 sg
-67 -24 87 160 2780 1898 3 MP
PP
c8
2780 1898 mt 2867 2058 L
2867 2058 mt 2800 2034 L
1 sg
87 160 -67 -34 2847 1932 3 MP
PP
c8
2847 1932 mt 2780 1898 L
2780 1898 mt 2867 2058 L
1 sg
87 90 -67 -24 2867 2058 3 MP
PP
c8
2867 2058 mt 2800 2034 L
2800 2034 mt 2887 2124 L
1 sg
87 -2 -67 -10 2821 2114 3 MP
PP
c8
2821 2114 mt 2754 2104 L
2754 2104 mt 2841 2102 L
1 sg
-67 -30 87 -2 2754 2104 3 MP
PP
c8
2754 2104 mt 2841 2102 L
2841 2102 mt 2774 2072 L
1 sg
-66 -10 87 90 2800 2034 3 MP
PP
c8
2800 2034 mt 2887 2124 L
2887 2124 mt 2821 2114 L
1 sg
-67 -289 87 -25 2853 2147 3 MP
PP
c8
2853 2147 mt 2940 2122 L
2940 2122 mt 2873 1833 L
1 sg
87 -25 -67 -219 2920 2366 3 MP
PP
c8
2920 2366 mt 2853 2147 L
2853 2147 mt 2940 2122 L
1 sg
87 -26 -66 -146 2899 2538 3 MP
PP
c8
2899 2538 mt 2833 2392 L
2833 2392 mt 2920 2366 L
1 sg
-67 -219 87 -26 2833 2392 3 MP
PP
c8
2833 2392 mt 2920 2366 L
2920 2366 mt 2853 2147 L
1 sg
-66 -146 86 -26 2813 2564 3 MP
PP
c8
2813 2564 mt 2899 2538 L
2899 2538 mt 2833 2392 L
1 sg
86 -26 -66 -93 2879 2657 3 MP
PP
c8
2879 2657 mt 2813 2564 L
2813 2564 mt 2899 2538 L
1 sg
-66 -41 86 199 2807 1573 3 MP
PP
c8
2807 1573 mt 2893 1772 L
2893 1772 mt 2827 1731 L
1 sg
86 199 -66 -260 2873 1833 3 MP
PP
c8
2873 1833 mt 2807 1573 L
2807 1573 mt 2893 1772 L
1 sg
-66 -93 87 -35 2792 2692 3 MP
PP
c8
2792 2692 mt 2879 2657 L
2879 2657 mt 2813 2564 L
1 sg
-67 -34 87 234 2760 1698 3 MP
PP
c8
2760 1698 mt 2847 1932 L
2847 1932 mt 2780 1898 L
1 sg
87 234 -67 -33 2827 1731 3 MP
PP
c8
2827 1731 mt 2760 1698 L
2760 1698 mt 2847 1932 L
1 sg
87 -18 -67 -296 2853 2147 3 MP
PP
c8
2853 2147 mt 2786 1851 L
2786 1851 mt 2873 1833 L
1 sg
87 281 -67 -123 2807 1573 3 MP
PP
c8
2807 1573 mt 2740 1450 L
2740 1450 mt 2827 1731 L
1 sg
-67 -33 87 281 2740 1450 3 MP
PP
c8
2740 1450 mt 2827 1731 L
2827 1731 mt 2760 1698 L
1 sg
-66 -260 87 -18 2786 1851 3 MP
PP
c8
2786 1851 mt 2873 1833 L
2873 1833 mt 2807 1573 L
1 sg
87 -25 -67 -220 2833 2392 3 MP
PP
c8
2833 2392 mt 2766 2172 L
2766 2172 mt 2853 2147 L
1 sg
-66 -31 87 -15 2687 2087 3 MP
PP
c8
2687 2087 mt 2774 2072 L
2774 2072 mt 2708 2041 L
1 sg
87 -15 -67 -17 2754 2104 3 MP
PP
c8
2754 2104 mt 2687 2087 L
2687 2087 mt 2774 2072 L
1 sg
-66 8 86 170 2714 1864 3 MP
PP
c8
2714 1864 mt 2800 2034 L
2800 2034 mt 2734 2042 L
1 sg
86 170 -66 -34 2780 1898 3 MP
PP
c8
2780 1898 mt 2714 1864 L
2714 1864 mt 2800 2034 L
1 sg
-67 -10 87 72 2734 2042 3 MP
PP
c8
2734 2042 mt 2821 2114 L
2821 2114 mt 2754 2104 L
1 sg
87 72 -66 8 2800 2034 3 MP
PP
c8
2800 2034 mt 2734 2042 L
2734 2042 mt 2821 2114 L
1 sg
-67 -296 87 -25 2766 2172 3 MP
PP
c8
2766 2172 mt 2853 2147 L
2853 2147 mt 2786 1851 L
1 sg
87 -27 -67 -145 2813 2564 3 MP
PP
c8
2813 2564 mt 2746 2419 L
2746 2419 mt 2833 2392 L
1 sg
-67 -220 87 -27 2746 2419 3 MP
PP
c8
2746 2419 mt 2833 2392 L
2833 2392 mt 2766 2172 L
1 sg
87 -41 -66 -87 2792 2692 3 MP
PP
c8
2792 2692 mt 2726 2605 L
2726 2605 mt 2813 2564 L
1 sg
-67 -145 87 -41 2726 2605 3 MP
PP
c8
2726 2605 mt 2813 2564 L
2813 2564 mt 2746 2419 L
1 sg
-67 -36 87 281 2673 1417 3 MP
PP
c8
2673 1417 mt 2760 1698 L
2760 1698 mt 2693 1662 L
1 sg
87 281 -67 -33 2740 1450 3 MP
PP
c8
2740 1450 mt 2673 1417 L
2673 1417 mt 2760 1698 L
1 sg
87 236 -67 -36 2760 1698 3 MP
PP
c8
2760 1698 mt 2693 1662 L
2693 1662 mt 2780 1898 L
1 sg
87 63 -66 -341 2786 1851 3 MP
PP
c8
2786 1851 mt 2720 1510 L
2720 1510 mt 2807 1573 L
1 sg
-67 -123 87 63 2720 1510 3 MP
PP
c8
2720 1510 mt 2807 1573 L
2807 1573 mt 2740 1450 L
1 sg
-66 -87 86 -37 2706 2729 3 MP
PP
c8
2706 2729 mt 2792 2692 L
2792 2692 mt 2726 2605 L
1 sg
87 167 -67 11 2714 1864 3 MP
PP
c8
2714 1864 mt 2647 1875 L
2647 1875 mt 2734 2042 L
1 sg
87 -21 -66 -25 2687 2087 3 MP
PP
c8
2687 2087 mt 2621 2062 L
2621 2062 mt 2708 2041 L
1 sg
-67 -17 87 40 2667 2064 3 MP
PP
c8
2667 2064 mt 2754 2104 L
2754 2104 mt 2687 2087 L
1 sg
87 40 -67 22 2734 2042 3 MP
PP
c8
2734 2042 mt 2667 2064 L
2667 2064 mt 2754 2104 L
1 sg
-66 -34 87 236 2693 1662 3 MP
PP
c8
2693 1662 mt 2780 1898 L
2780 1898 mt 2714 1864 L
1 sg
87 -27 -67 -294 2766 2172 3 MP
PP
c8
2766 2172 mt 2699 1878 L
2699 1878 mt 2786 1851 L
1 sg
-67 11 87 237 2627 1627 3 MP
PP
c8
2627 1627 mt 2714 1864 L
2714 1864 mt 2647 1875 L
1 sg
87 237 -66 -35 2693 1662 3 MP
PP
c8
2693 1662 mt 2627 1627 L
2627 1627 mt 2714 1864 L
1 sg
-66 -341 87 -27 2699 1878 3 MP
PP
c8
2699 1878 mt 2786 1851 L
2786 1851 mt 2720 1510 L
1 sg
-66 -25 86 10 2601 2077 3 MP
PP
c8
2601 2077 mt 2687 2087 L
2687 2087 mt 2621 2062 L
1 sg
86 10 -66 13 2667 2064 3 MP
PP
c8
2667 2064 mt 2601 2077 L
2601 2077 mt 2687 2087 L
1 sg
-67 -34 87 -21 2621 2062 3 MP
PP
c8
2621 2062 mt 2708 2041 L
2708 2041 mt 2641 2007 L
1 sg
-67 22 87 167 2647 1875 3 MP
PP
c8
2647 1875 mt 2734 2042 L
2734 2042 mt 2667 2064 L
1 sg
-67 -294 87 -26 2679 2198 3 MP
PP
c8
2679 2198 mt 2766 2172 L
2766 2172 mt 2699 1878 L
1 sg
87 -26 -67 -221 2746 2419 3 MP
PP
c8
2746 2419 mt 2679 2198 L
2679 2198 mt 2766 2172 L
1 sg
-67 -221 87 -35 2659 2454 3 MP
PP
c8
2659 2454 mt 2746 2419 L
2746 2419 mt 2679 2198 L
1 sg
87 -35 -67 -151 2726 2605 3 MP
PP
c8
2726 2605 mt 2659 2454 L
2659 2454 mt 2746 2419 L
1 sg
-67 -33 87 208 2653 1242 3 MP
PP
c8
2653 1242 mt 2740 1450 L
2740 1450 mt 2673 1417 L
1 sg
87 208 -67 -268 2720 1510 3 MP
PP
c8
2720 1510 mt 2653 1242 L
2653 1242 mt 2740 1450 L
1 sg
-67 -151 87 -50 2639 2655 3 MP
PP
c8
2639 2655 mt 2726 2605 L
2726 2605 mt 2659 2454 L
1 sg
87 -50 -67 -74 2706 2729 3 MP
PP
c8
2706 2729 mt 2639 2655 L
2639 2655 mt 2726 2605 L
1 sg
86 276 -66 -31 2673 1417 3 MP
PP
c8
2673 1417 mt 2607 1386 L
2607 1386 mt 2693 1662 L
1 sg
-66 -35 86 276 2607 1386 3 MP
PP
c8
2607 1386 mt 2693 1662 L
2693 1662 mt 2627 1627 L
1 sg
87 -28 -66 -340 2699 1878 3 MP
PP
c8
2699 1878 mt 2633 1538 L
2633 1538 mt 2720 1510 L
1 sg
87 250 -67 -75 2653 1242 3 MP
PP
c8
2653 1242 mt 2586 1167 L
2586 1167 mt 2673 1417 L
1 sg
-66 -31 87 250 2586 1167 3 MP
PP
c8
2586 1167 mt 2673 1417 L
2673 1417 mt 2607 1386 L
1 sg
-67 -268 87 -28 2633 1538 3 MP
PP
c8
2633 1538 mt 2720 1510 L
2720 1510 mt 2653 1242 L
1 sg
-67 -74 87 -34 2619 2763 3 MP
PP
c8
2619 2763 mt 2706 2729 L
2706 2729 mt 2639 2655 L
1 sg
87 266 -67 -18 2627 1627 3 MP
PP
c8
2627 1627 mt 2560 1609 L
2560 1609 mt 2647 1875 L
1 sg
-67 62 87 266 2560 1609 3 MP
PP
c8
2560 1609 mt 2647 1875 L
2647 1875 mt 2580 1937 L
1 sg
87 -25 -67 -30 2621 2062 3 MP
PP
c8
2621 2062 mt 2554 2032 L
2554 2032 mt 2641 2007 L
1 sg
-67 -33 87 -25 2554 2032 3 MP
PP
c8
2554 2032 mt 2641 2007 L
2641 2007 mt 2574 1974 L
1 sg
87 127 -67 62 2647 1875 3 MP
PP
c8
2647 1875 mt 2580 1937 L
2580 1937 mt 2667 2064 L
1 sg
-66 -340 86 -25 2613 1903 3 MP
PP
c8
2613 1903 mt 2699 1878 L
2699 1878 mt 2633 1538 L
1 sg
-67 -30 87 -10 2534 2072 3 MP
PP
c8
2534 2072 mt 2621 2062 L
2621 2062 mt 2554 2032 L
1 sg
87 -10 -67 -5 2601 2077 3 MP
PP
c8
2601 2077 mt 2534 2072 L
2534 2072 mt 2621 2062 L
1 sg
-66 13 87 127 2580 1937 3 MP
PP
c8
2580 1937 mt 2667 2064 L
2667 2064 mt 2601 2077 L
1 sg
86 -25 -66 -295 2679 2198 3 MP
PP
c8
2679 2198 mt 2613 1903 L
2613 1903 mt 2699 1878 L
1 sg
87 -27 -67 -229 2659 2454 3 MP
PP
c8
2659 2454 mt 2592 2225 L
2592 2225 mt 2679 2198 L
1 sg
-66 -295 87 -27 2592 2225 3 MP
PP
c8
2592 2225 mt 2679 2198 L
2679 2198 mt 2613 1903 L
1 sg
-67 -229 87 -69 2572 2523 3 MP
PP
c8
2572 2523 mt 2659 2454 L
2659 2454 mt 2592 2225 L
1 sg
87 -69 -67 -132 2639 2655 3 MP
PP
c8
2639 2655 mt 2572 2523 L
2572 2523 mt 2659 2454 L
1 sg
87 252 -66 -33 2586 1167 3 MP
PP
c8
2586 1167 mt 2520 1134 L
2520 1134 mt 2607 1386 L
1 sg
-67 -34 87 252 2520 1134 3 MP
PP
c8
2520 1134 mt 2607 1386 L
2607 1386 mt 2540 1352 L
1 sg
87 275 -67 -34 2607 1386 3 MP
PP
c8
2607 1386 mt 2540 1352 L
2540 1352 mt 2627 1627 L
1 sg
87 15 -67 -311 2633 1538 3 MP
PP
c8
2633 1538 mt 2566 1227 L
2566 1227 mt 2653 1242 L
1 sg
-67 -75 87 15 2566 1227 3 MP
PP
c8
2566 1227 mt 2653 1242 L
2653 1242 mt 2586 1167 L
1 sg
87 -51 -67 -57 2619 2763 3 MP
PP
c8
2619 2763 mt 2552 2706 L
2552 2706 mt 2639 2655 L
1 sg
-67 -132 87 -51 2552 2706 3 MP
PP
c8
2552 2706 mt 2639 2655 L
2639 2655 mt 2572 2523 L
1 sg
87 294 -67 -37 2540 1352 3 MP
PP
c8
2540 1352 mt 2473 1315 L
2473 1315 mt 2560 1609 L
1 sg
-66 84 87 294 2473 1315 3 MP
PP
c8
2473 1315 mt 2560 1609 L
2560 1609 mt 2494 1693 L
1 sg
86 244 -66 84 2560 1609 3 MP
PP
c8
2560 1609 mt 2494 1693 L
2494 1693 mt 2580 1937 L
1 sg
-67 -18 87 275 2540 1352 3 MP
PP
c8
2540 1352 mt 2627 1627 L
2627 1627 mt 2560 1609 L
1 sg
87 -28 -67 -337 2613 1903 3 MP
PP
c8
2613 1903 mt 2546 1566 L
2546 1566 mt 2633 1538 L
1 sg
-67 -311 87 -28 2546 1566 3 MP
PP
c8
2546 1566 mt 2633 1538 L
2633 1538 mt 2566 1227 L
1 sg
-67 -57 87 -31 2532 2794 3 MP
PP
c8
2532 2794 mt 2619 2763 L
2619 2763 mt 2552 2706 L
1 sg
-66 -33 87 -20 2467 2052 3 MP
PP
c8
2467 2052 mt 2554 2032 L
2554 2032 mt 2488 1999 L
1 sg
87 -20 -67 -20 2534 2072 3 MP
PP
c8
2534 2072 mt 2467 2052 L
2467 2052 mt 2554 2032 L
1 sg
86 -25 -66 -33 2554 2032 3 MP
PP
c8
2554 2032 mt 2488 1999 L
2488 1999 mt 2574 1974 L
1 sg
-66 -34 86 -25 2488 1999 3 MP
PP
c8
2488 1999 mt 2574 1974 L
2574 1974 mt 2508 1940 L
1 sg
-66 69 86 244 2494 1693 3 MP
PP
c8
2494 1693 mt 2580 1937 L
2580 1937 mt 2514 2006 L
1 sg
87 71 -66 69 2580 1937 3 MP
PP
c8
2580 1937 mt 2514 2006 L
2514 2006 mt 2601 2077 L
1 sg
-67 -5 87 71 2514 2006 3 MP
PP
c8
2514 2006 mt 2601 2077 L
2601 2077 mt 2534 2072 L
1 sg
87 -25 -66 -297 2592 2225 3 MP
PP
c8
2592 2225 mt 2526 1928 L
2526 1928 mt 2613 1903 L
1 sg
-67 -337 87 -25 2526 1928 3 MP
PP
c8
2526 1928 mt 2613 1903 L
2613 1903 mt 2546 1566 L
1 sg
86 -71 -66 -227 2572 2523 3 MP
PP
c8
2572 2523 mt 2506 2296 L
2506 2296 mt 2592 2225 L
1 sg
-66 -28 86 -6 2381 2058 3 MP
PP
c8
2381 2058 mt 2467 2052 L
2467 2052 mt 2401 2024 L
1 sg
86 -6 -66 9 2447 2049 3 MP
PP
c8
2447 2049 mt 2381 2058 L
2381 2058 mt 2467 2052 L
1 sg
-67 -20 87 23 2447 2049 3 MP
PP
c8
2447 2049 mt 2534 2072 L
2534 2072 mt 2467 2052 L
1 sg
87 -25 -66 -28 2467 2052 3 MP
PP
c8
2467 2052 mt 2401 2024 L
2401 2024 mt 2488 1999 L
1 sg
87 23 -67 43 2514 2006 3 MP
PP
c8
2514 2006 mt 2447 2049 L
2447 2049 mt 2534 2072 L
1 sg
-66 -297 86 -71 2506 2296 3 MP
PP
c8
2506 2296 mt 2592 2225 L
2592 2225 mt 2526 1928 L
1 sg
-66 -33 86 129 2500 1038 3 MP
PP
c8
2500 1038 mt 2586 1167 L
2586 1167 mt 2520 1134 L
1 sg
86 129 -66 -189 2566 1227 3 MP
PP
c8
2566 1227 mt 2500 1038 L
2500 1038 mt 2586 1167 L
1 sg
87 -82 -67 -101 2552 2706 3 MP
PP
c8
2552 2706 mt 2485 2605 L
2485 2605 mt 2572 2523 L
1 sg
-66 -227 87 -82 2485 2605 3 MP
PP
c8
2485 2605 mt 2572 2523 L
2572 2523 mt 2506 2296 L
1 sg
-67 -33 87 133 2433 1001 3 MP
PP
c8
2433 1001 mt 2520 1134 L
2520 1134 mt 2453 1101 L
1 sg
87 133 -67 -37 2500 1038 3 MP
PP
c8
2500 1038 mt 2433 1001 L
2433 1001 mt 2520 1134 L
1 sg
-67 -37 87 251 2453 1101 3 MP
PP
c8
2453 1101 mt 2540 1352 L
2540 1352 mt 2473 1315 L
1 sg
87 251 -67 -33 2520 1134 3 MP
PP
c8
2520 1134 mt 2453 1101 L
2453 1101 mt 2540 1352 L
1 sg
-66 -189 87 -27 2479 1254 3 MP
PP
c8
2479 1254 mt 2566 1227 L
2566 1227 mt 2500 1038 L
1 sg
87 -27 -67 -312 2546 1566 3 MP
PP
c8
2546 1566 mt 2479 1254 L
2479 1254 mt 2566 1227 L
1 sg
-67 -101 87 -43 2465 2749 3 MP
PP
c8
2465 2749 mt 2552 2706 L
2552 2706 mt 2485 2605 L
1 sg
87 -43 -67 -45 2532 2794 3 MP
PP
c8
2532 2794 mt 2465 2749 L
2465 2749 mt 2552 2706 L
1 sg
87 337 -66 41 2473 1315 3 MP
PP
c8
2473 1315 mt 2407 1356 L
2407 1356 mt 2494 1693 L
1 sg
-67 140 87 337 2407 1356 3 MP
PP
c8
2407 1356 mt 2494 1693 L
2494 1693 mt 2427 1833 L
1 sg
-67 -312 87 -26 2459 1592 3 MP
PP
c8
2459 1592 mt 2546 1566 L
2546 1566 mt 2479 1254 L
1 sg
-67 -34 87 -26 2421 1966 3 MP
PP
c8
2421 1966 mt 2508 1940 L
2508 1940 mt 2441 1906 L
1 sg
87 -26 -67 -33 2488 1999 3 MP
PP
c8
2488 1999 mt 2421 1966 L
2421 1966 mt 2508 1940 L
1 sg
87 173 -67 140 2494 1693 3 MP
PP
c8
2494 1693 mt 2427 1833 L
2427 1833 mt 2514 2006 L
1 sg
87 -26 -67 -336 2526 1928 3 MP
PP
c8
2526 1928 mt 2459 1592 L
2459 1592 mt 2546 1566 L
1 sg
-67 -45 87 -28 2445 2822 3 MP
PP
c8
2445 2822 mt 2532 2794 L
2532 2794 mt 2465 2749 L
1 sg
87 -25 -67 -33 2401 2024 3 MP
PP
c8
2401 2024 mt 2334 1991 L
2334 1991 mt 2421 1966 L
1 sg
-67 -34 87 -25 2334 1991 3 MP
PP
c8
2334 1991 mt 2421 1966 L
2421 1966 mt 2354 1932 L
1 sg
-66 -34 87 -26 2354 1932 3 MP
PP
c8
2354 1932 mt 2441 1906 L
2441 1906 mt 2375 1872 L
1 sg
87 -26 -67 -34 2421 1966 3 MP
PP
c8
2421 1966 mt 2354 1932 L
2354 1932 mt 2441 1906 L
1 sg
-67 -33 87 -25 2401 2024 3 MP
PP
c8
2401 2024 mt 2488 1999 L
2488 1999 mt 2421 1966 L
1 sg
87 92 -67 124 2427 1833 3 MP
PP
c8
2427 1833 mt 2360 1957 L
2360 1957 mt 2447 2049 L
1 sg
-67 43 87 173 2427 1833 3 MP
PP
c8
2427 1833 mt 2514 2006 L
2514 2006 mt 2447 2049 L
1 sg
-67 -336 87 -42 2439 1970 3 MP
PP
c8
2439 1970 mt 2526 1928 L
2526 1928 mt 2459 1592 L
1 sg
87 -42 -67 -326 2506 2296 3 MP
PP
c8
2506 2296 mt 2439 1970 L
2439 1970 mt 2526 1928 L
1 sg
-67 -33 87 -19 2314 2043 3 MP
PP
c8
2314 2043 mt 2401 2024 L
2401 2024 mt 2334 1991 L
1 sg
87 -19 -67 -15 2381 2058 3 MP
PP
c8
2381 2058 mt 2314 2043 L
2314 2043 mt 2401 2024 L
1 sg
-66 9 87 92 2360 1957 3 MP
PP
c8
2360 1957 mt 2447 2049 L
2447 2049 mt 2381 2058 L
1 sg
-67 -326 87 -122 2419 2418 3 MP
PP
c8
2419 2418 mt 2506 2296 L
2506 2296 mt 2439 1970 L
1 sg
87 -122 -66 -187 2485 2605 3 MP
PP
c8
2485 2605 mt 2419 2418 L
2419 2418 mt 2506 2296 L
1 sg
87 136 -67 -36 2433 1001 3 MP
PP
c8
2433 1001 mt 2366  965 L
2366  965 mt 2453 1101 L
1 sg
-66 -30 87 136 2366 965 3 MP
PP
c8
2366  965 mt 2453 1101 L
2453 1101 mt 2387 1071 L
1 sg
-67 -37 87 -23 2413 1061 3 MP
PP
c8
2413 1061 mt 2500 1038 L
2500 1038 mt 2433 1001 L
1 sg
86 244 -66 -30 2453 1101 3 MP
PP
c8
2453 1101 mt 2387 1071 L
2387 1071 mt 2473 1315 L
1 sg
87 -23 -66 -193 2479 1254 3 MP
PP
c8
2479 1254 mt 2413 1061 L
2413 1061 mt 2500 1038 L
1 sg
-66 -187 86 -73 2399 2678 3 MP
PP
c8
2399 2678 mt 2485 2605 L
2485 2605 mt 2419 2418 L
1 sg
86 -73 -66 -71 2465 2749 3 MP
PP
c8
2465 2749 mt 2399 2678 L
2399 2678 mt 2485 2605 L
1 sg
87 314 -67 -29 2387 1071 3 MP
PP
c8
2387 1071 mt 2320 1042 L
2320 1042 mt 2407 1356 L
1 sg
-66 41 86 244 2387 1071 3 MP
PP
c8
2387 1071 mt 2473 1315 L
2473 1315 mt 2407 1356 L
1 sg
-66 -193 86 -28 2393 1282 3 MP
PP
c8
2393 1282 mt 2479 1254 L
2479 1254 mt 2413 1061 L
1 sg
86 -28 -66 -310 2459 1592 3 MP
PP
c8
2459 1592 mt 2393 1282 L
2393 1282 mt 2479 1254 L
1 sg
-66 -71 87 -35 2378 2784 3 MP
PP
c8
2378 2784 mt 2465 2749 L
2465 2749 mt 2399 2678 L
1 sg
87 -35 -67 -38 2445 2822 3 MP
PP
c8
2445 2822 mt 2378 2784 L
2378 2784 mt 2465 2749 L
1 sg
-67 -34 87 -26 2288 1898 3 MP
PP
c8
2288 1898 mt 2375 1872 L
2375 1872 mt 2308 1838 L
1 sg
87 -26 -66 -34 2354 1932 3 MP
PP
c8
2354 1932 mt 2288 1898 L
2288 1898 mt 2375 1872 L
1 sg
-67 124 87 293 2340 1540 3 MP
PP
c8
2340 1540 mt 2427 1833 L
2427 1833 mt 2360 1957 L
1 sg
87 293 -67 184 2407 1356 3 MP
PP
c8
2407 1356 mt 2340 1540 L
2340 1540 mt 2427 1833 L
1 sg
87 -24 -67 -354 2439 1970 3 MP
PP
c8
2439 1970 mt 2372 1616 L
2372 1616 mt 2459 1592 L
1 sg
-67 184 87 314 2320 1042 3 MP
PP
c8
2320 1042 mt 2407 1356 L
2407 1356 mt 2340 1540 L
1 sg
-66 -310 87 -24 2372 1616 3 MP
PP
c8
2372 1616 mt 2459 1592 L
2459 1592 mt 2393 1282 L
1 sg
-67 -38 87 -27 2358 2849 3 MP
PP
c8
2358 2849 mt 2445 2822 L
2445 2822 mt 2378 2784 L
1 sg
87 -143 -67 -305 2419 2418 3 MP
PP
c8
2419 2418 mt 2352 2113 L
2352 2113 mt 2439 1970 L
1 sg
87 -26 -67 -34 2288 1898 3 MP
PP
c8
2288 1898 mt 2221 1864 L
2221 1864 mt 2308 1838 L
1 sg
86 -26 -66 -33 2334 1991 3 MP
PP
c8
2334 1991 mt 2268 1958 L
2268 1958 mt 2354 1932 L
1 sg
-66 -34 86 -26 2268 1958 3 MP
PP
c8
2268 1958 mt 2354 1932 L
2354 1932 mt 2288 1898 L
1 sg
86 194 -66 223 2340 1540 3 MP
PP
c8
2340 1540 mt 2274 1763 L
2274 1763 mt 2360 1957 L
1 sg
87 -26 -67 -34 2268 1958 3 MP
PP
c8
2268 1958 mt 2201 1924 L
2201 1924 mt 2288 1898 L
1 sg
-67 -34 87 -26 2201 1924 3 MP
PP
c8
2201 1924 mt 2288 1898 L
2288 1898 mt 2221 1864 L
1 sg
87 -25 -67 -27 2314 2043 3 MP
PP
c8
2314 2043 mt 2247 2016 L
2247 2016 mt 2334 1991 L
1 sg
-66 -33 87 -25 2247 2016 3 MP
PP
c8
2247 2016 mt 2334 1991 L
2334 1991 mt 2268 1958 L
1 sg
-66 71 86 194 2274 1763 3 MP
PP
c8
2274 1763 mt 2360 1957 L
2360 1957 mt 2294 2028 L
1 sg
87 30 -66 71 2360 1957 3 MP
PP
c8
2360 1957 mt 2294 2028 L
2294 2028 mt 2381 2058 L
1 sg
-67 -15 87 30 2294 2028 3 MP
PP
c8
2294 2028 mt 2381 2058 L
2381 2058 mt 2314 2043 L
1 sg
-67 -354 87 -143 2352 2113 3 MP
PP
c8
2352 2113 mt 2439 1970 L
2439 1970 mt 2372 1616 L
1 sg
-67 -29 87 139 2300 932 3 MP
PP
c8
2300  932 mt 2387 1071 L
2387 1071 mt 2320 1042 L
1 sg
87 139 -66 -33 2366 965 3 MP
PP
c8
2366  965 mt 2300  932 L
2300  932 mt 2387 1071 L
1 sg
87 -7 -67 -53 2413 1061 3 MP
PP
c8
2413 1061 mt 2346 1008 L
2346 1008 mt 2433 1001 L
1 sg
-67 -36 87 -7 2346 1008 3 MP
PP
c8
2346 1008 mt 2433 1001 L
2433 1001 mt 2366  965 L
1 sg
-67 -305 87 -129 2332 2547 3 MP
PP
c8
2332 2547 mt 2419 2418 L
2419 2418 mt 2352 2113 L
1 sg
87 -129 -67 -131 2399 2678 3 MP
PP
c8
2399 2678 mt 2332 2547 L
2332 2547 mt 2419 2418 L
1 sg
-67 -53 87 -25 2326 1086 3 MP
PP
c8
2326 1086 mt 2413 1061 L
2413 1061 mt 2346 1008 L
1 sg
87 -25 -67 -196 2393 1282 3 MP
PP
c8
2393 1282 mt 2326 1086 L
2326 1086 mt 2413 1061 L
1 sg
-67 -131 87 -55 2312 2733 3 MP
PP
c8
2312 2733 mt 2399 2678 L
2399 2678 mt 2332 2547 L
1 sg
87 -55 -66 -51 2378 2784 3 MP
PP
c8
2378 2784 mt 2312 2733 L
2312 2733 mt 2399 2678 L
1 sg
87 349 -67 149 2320 1042 3 MP
PP
c8
2320 1042 mt 2253 1191 L
2253 1191 mt 2340 1540 L
1 sg
-67 -196 87 -29 2306 1311 3 MP
PP
c8
2306 1311 mt 2393 1282 L
2393 1282 mt 2326 1086 L
1 sg
87 -29 -66 -305 2372 1616 3 MP
PP
c8
2372 1616 mt 2306 1311 L
2306 1311 mt 2393 1282 L
1 sg
-66 -51 86 -30 2292 2814 3 MP
PP
c8
2292 2814 mt 2378 2784 L
2378 2784 mt 2312 2733 L
1 sg
86 -30 -66 -35 2358 2849 3 MP
PP
c8
2358 2849 mt 2292 2814 L
2292 2814 mt 2378 2784 L
1 sg
-66 223 87 349 2253 1191 3 MP
PP
c8
2253 1191 mt 2340 1540 L
2340 1540 mt 2274 1763 L
1 sg
-66 -305 86 -100 2286 1716 3 MP
PP
c8
2286 1716 mt 2372 1616 L
2372 1616 mt 2306 1311 L
1 sg
86 -100 -66 -397 2352 2113 3 MP
PP
c8
2352 2113 mt 2286 1716 L
2286 1716 mt 2372 1616 L
1 sg
87 141 -67 -31 2300 932 3 MP
PP
c8
2300  932 mt 2233  901 L
2233  901 mt 2320 1042 L
1 sg
86 -9 -66 -34 2346 1008 3 MP
PP
c8
2346 1008 mt 2280  974 L
2280  974 mt 2366  965 L
1 sg
-66 -33 86 -9 2280 974 3 MP
PP
c8
2280  974 mt 2366  965 L
2366  965 mt 2300  932 L
1 sg
-66 -35 87 -26 2271 2875 3 MP
PP
c8
2271 2875 mt 2358 2849 L
2358 2849 mt 2292 2814 L
1 sg
-66 -32 87 -19 2160 2035 3 MP
PP
c8
2160 2035 mt 2247 2016 L
2247 2016 mt 2181 1984 L
1 sg
87 -19 -67 -13 2227 2048 3 MP
PP
c8
2227 2048 mt 2160 2035 L
2160 2035 mt 2247 2016 L
1 sg
87 -26 -66 -32 2247 2016 3 MP
PP
c8
2247 2016 mt 2181 1984 L
2181 1984 mt 2268 1958 L
1 sg
-67 -34 87 -26 2181 1984 3 MP
PP
c8
2181 1984 mt 2268 1958 L
2268 1958 mt 2201 1924 L
1 sg
-67 -27 87 -5 2227 2048 3 MP
PP
c8
2227 2048 mt 2314 2043 L
2314 2043 mt 2247 2016 L
1 sg
-67 20 87 95 2207 1933 3 MP
PP
c8
2207 1933 mt 2294 2028 L
2294 2028 mt 2227 2048 L
1 sg
87 95 -67 170 2274 1763 3 MP
PP
c8
2274 1763 mt 2207 1933 L
2207 1933 mt 2294 2028 L
1 sg
87 -5 -67 20 2294 2028 3 MP
PP
c8
2294 2028 mt 2227 2048 L
2227 2048 mt 2314 2043 L
1 sg
-66 -397 87 -201 2265 2314 3 MP
PP
c8
2265 2314 mt 2352 2113 L
2352 2113 mt 2286 1716 L
1 sg
87 -201 -67 -233 2332 2547 3 MP
PP
c8
2332 2547 mt 2265 2314 L
2265 2314 mt 2352 2113 L
1 sg
-67 149 87 141 2233 901 3 MP
PP
c8
2233  901 mt 2320 1042 L
2320 1042 mt 2253 1191 L
1 sg
87 -26 -67 -52 2326 1086 3 MP
PP
c8
2326 1086 mt 2259 1034 L
2259 1034 mt 2346 1008 L
1 sg
-66 -34 87 -26 2259 1034 3 MP
PP
c8
2259 1034 mt 2346 1008 L
2346 1008 mt 2280  974 L
1 sg
87 -103 -67 -83 2312 2733 3 MP
PP
c8
2312 2733 mt 2245 2650 L
2245 2650 mt 2332 2547 L
1 sg
-67 -233 87 -103 2245 2650 3 MP
PP
c8
2245 2650 mt 2332 2547 L
2332 2547 mt 2265 2314 L
1 sg
86 261 -66 29 2233 901 3 MP
PP
c8
2233  901 mt 2167  930 L
2167  930 mt 2253 1191 L
1 sg
-67 -52 87 -26 2239 1112 3 MP
PP
c8
2239 1112 mt 2326 1086 L
2326 1086 mt 2259 1034 L
1 sg
87 -26 -67 -199 2306 1311 3 MP
PP
c8
2306 1311 mt 2239 1112 L
2239 1112 mt 2326 1086 L
1 sg
87 -41 -67 -40 2292 2814 3 MP
PP
c8
2292 2814 mt 2225 2774 L
2225 2774 mt 2312 2733 L
1 sg
-67 -83 87 -41 2225 2774 3 MP
PP
c8
2225 2774 mt 2312 2733 L
2312 2733 mt 2245 2650 L
1 sg
87 287 -66 285 2253 1191 3 MP
PP
c8
2253 1191 mt 2187 1476 L
2187 1476 mt 2274 1763 L
1 sg
87 -32 -67 -373 2286 1716 3 MP
PP
c8
2286 1716 mt 2219 1343 L
2219 1343 mt 2306 1311 L
1 sg
-66 285 86 261 2167 930 3 MP
PP
c8
2167  930 mt 2253 1191 L
2253 1191 mt 2187 1476 L
1 sg
-67 -199 87 -32 2219 1343 3 MP
PP
c8
2219 1343 mt 2306 1311 L
2306 1311 mt 2239 1112 L
1 sg
87 -8 -67 -34 2280 974 3 MP
PP
c8
2280  974 mt 2213  940 L
2213  940 mt 2300  932 L
1 sg
-67 -31 87 -8 2213 940 3 MP
PP
c8
2213  940 mt 2300  932 L
2300  932 mt 2233  901 L
1 sg
-67 -40 87 -27 2205 2841 3 MP
PP
c8
2205 2841 mt 2292 2814 L
2292 2814 mt 2225 2774 L
1 sg
87 -27 -66 -34 2271 2875 3 MP
PP
c8
2271 2875 mt 2205 2841 L
2205 2841 mt 2292 2814 L
1 sg
87 -24 -66 -27 2160 2035 3 MP
PP
c8
2160 2035 mt 2094 2008 L
2094 2008 mt 2181 1984 L
1 sg
-67 -13 87 28 2140 2020 3 MP
PP
c8
2140 2020 mt 2227 2048 L
2227 2048 mt 2160 2035 L
1 sg
-67 -34 87 -24 2094 2008 3 MP
PP
c8
2094 2008 mt 2181 1984 L
2181 1984 mt 2114 1950 L
1 sg
87 -26 -67 -34 2181 1984 3 MP
PP
c8
2181 1984 mt 2114 1950 L
2114 1950 mt 2201 1924 L
1 sg
87 28 -67 87 2207 1933 3 MP
PP
c8
2207 1933 mt 2140 2020 L
2140 2020 mt 2227 2048 L
1 sg
87 -26 -67 -34 2201 1924 3 MP
PP
c8
2201 1924 mt 2134 1890 L
2134 1890 mt 2221 1864 L
1 sg
-67 170 87 287 2187 1476 3 MP
PP
c8
2187 1476 mt 2274 1763 L
2274 1763 mt 2207 1933 L
1 sg
87 -245 -66 -353 2265 2314 3 MP
PP
c8
2265 2314 mt 2199 1961 L
2199 1961 mt 2286 1716 L
1 sg
-67 -34 87 -26 2114 1950 3 MP
PP
c8
2114 1950 mt 2201 1924 L
2201 1924 mt 2134 1890 L
1 sg
87 178 -67 279 2187 1476 3 MP
PP
c8
2187 1476 mt 2120 1755 L
2120 1755 mt 2207 1933 L
1 sg
87 -26 -67 -34 2114 1950 3 MP
PP
c8
2114 1950 mt 2047 1916 L
2047 1916 mt 2134 1890 L
1 sg
-67 87 87 178 2120 1755 3 MP
PP
c8
2120 1755 mt 2207 1933 L
2207 1933 mt 2140 2020 L
1 sg
-67 -373 87 -245 2199 1961 3 MP
PP
c8
2199 1961 mt 2286 1716 L
2286 1716 mt 2219 1343 L
1 sg
87 -26 -66 -34 2259 1034 3 MP
PP
c8
2259 1034 mt 2193 1000 L
2193 1000 mt 2280  974 L
1 sg
-67 -34 87 -26 2193 1000 3 MP
PP
c8
2193 1000 mt 2280  974 L
2280  974 mt 2213  940 L
1 sg
-66 -34 86 -27 2185 2902 3 MP
PP
c8
2185 2902 mt 2271 2875 L
2271 2875 mt 2205 2841 L
1 sg
-66 -353 86 -184 2179 2498 3 MP
PP
c8
2179 2498 mt 2265 2314 L
2265 2314 mt 2199 1961 L
1 sg
86 -184 -66 -152 2245 2650 3 MP
PP
c8
2245 2650 mt 2179 2498 L
2179 2498 mt 2265 2314 L
1 sg
86 -26 -66 -52 2239 1112 3 MP
PP
c8
2239 1112 mt 2173 1060 L
2173 1060 mt 2259 1034 L
1 sg
-66 -34 86 -26 2173 1060 3 MP
PP
c8
2173 1060 mt 2259 1034 L
2259 1034 mt 2193 1000 L
1 sg
87 -69 -67 -55 2225 2774 3 MP
PP
c8
2225 2774 mt 2158 2719 L
2158 2719 mt 2245 2650 L
1 sg
-66 -152 87 -69 2158 2719 3 MP
PP
c8
2158 2719 mt 2245 2650 L
2245 2650 mt 2179 2498 L
1 sg
87 293 -67 253 2167 930 3 MP
PP
c8
2167  930 mt 2100 1183 L
2100 1183 mt 2187 1476 L
1 sg
-66 -52 87 -29 2152 1141 3 MP
PP
c8
2152 1141 mt 2239 1112 L
2239 1112 mt 2173 1060 L
1 sg
87 -29 -67 -202 2219 1343 3 MP
PP
c8
2219 1343 mt 2152 1141 L
2152 1141 mt 2239 1112 L
1 sg
-66 29 87 -5 2146 906 3 MP
PP
c8
2146  906 mt 2233  901 L
2233  901 mt 2167  930 L
1 sg
87 -5 -67 -34 2213 940 3 MP
PP
c8
2213  940 mt 2146  906 L
2146  906 mt 2233  901 L
1 sg
-67 -55 87 -31 2138 2805 3 MP
PP
c8
2138 2805 mt 2225 2774 L
2225 2774 mt 2158 2719 L
1 sg
87 -31 -67 -36 2205 2841 3 MP
PP
c8
2205 2841 mt 2138 2805 L
2138 2805 mt 2225 2774 L
1 sg
-67 279 87 293 2100 1183 3 MP
PP
c8
2100 1183 mt 2187 1476 L
2187 1476 mt 2120 1755 L
1 sg
87 -209 -67 -409 2199 1961 3 MP
PP
c8
2199 1961 mt 2132 1552 L
2132 1552 mt 2219 1343 L
1 sg
-67 -202 87 -209 2132 1552 3 MP
PP
c8
2132 1552 mt 2219 1343 L
2219 1343 mt 2152 1141 L
1 sg
87 37 -66 -13 2146 906 3 MP
PP
c8
2146  906 mt 2080  893 L
2080  893 mt 2167  930 L
1 sg
-67 253 87 37 2080 893 3 MP
PP
c8
2080  893 mt 2167  930 L
2167  930 mt 2100 1183 L
1 sg
-67 -34 87 -26 2126 966 3 MP
PP
c8
2126  966 mt 2213  940 L
2213  940 mt 2146  906 L
1 sg
87 -26 -67 -34 2193 1000 3 MP
PP
c8
2193 1000 mt 2126  966 L
2126  966 mt 2213  940 L
1 sg
-67 -36 87 -26 2118 2867 3 MP
PP
c8
2118 2867 mt 2205 2841 L
2205 2841 mt 2138 2805 L
1 sg
87 -26 -67 -35 2185 2902 3 MP
PP
c8
2185 2902 mt 2118 2867 L
2118 2867 mt 2205 2841 L
1 sg
-67 -34 87 -26 2027 1976 3 MP
PP
c8
2027 1976 mt 2114 1950 L
2114 1950 mt 2047 1916 L
1 sg
87 -26 -67 -32 2094 2008 3 MP
PP
c8
2094 2008 mt 2027 1976 L
2027 1976 mt 2114 1950 L
1 sg
87 79 -67 186 2120 1755 3 MP
PP
c8
2120 1755 mt 2053 1941 L
2053 1941 mt 2140 2020 L
1 sg
87 -21 -67 -13 2074 2042 3 MP
PP
c8
2074 2042 mt 2007 2029 L
2007 2029 mt 2094 2008 L
1 sg
-67 -32 87 -21 2007 2029 3 MP
PP
c8
2007 2029 mt 2094 2008 L
2094 2008 mt 2027 1976 L
1 sg
-66 -27 86 -7 2074 2042 3 MP
PP
c8
2074 2042 mt 2160 2035 L
2160 2035 mt 2094 2008 L
1 sg
-66 22 87 79 2053 1941 3 MP
PP
c8
2053 1941 mt 2140 2020 L
2140 2020 mt 2074 2042 L
1 sg
86 -7 -66 22 2140 2020 3 MP
PP
c8
2140 2020 mt 2074 2042 L
2074 2042 mt 2160 2035 L
1 sg
-67 -409 87 -283 2112 2244 3 MP
PP
c8
2112 2244 mt 2199 1961 L
2199 1961 mt 2132 1552 L
1 sg
87 -283 -67 -254 2179 2498 3 MP
PP
c8
2179 2498 mt 2112 2244 L
2112 2244 mt 2199 1961 L
1 sg
87 -26 -67 -34 2173 1060 3 MP
PP
c8
2173 1060 mt 2106 1026 L
2106 1026 mt 2193 1000 L
1 sg
-67 -34 87 -26 2106 1026 3 MP
PP
c8
2106 1026 mt 2193 1000 L
2193 1000 mt 2126  966 L
1 sg
-67 -35 87 -26 2098 2928 3 MP
PP
c8
2098 2928 mt 2185 2902 L
2185 2902 mt 2118 2867 L
1 sg
87 -132 -66 -89 2158 2719 3 MP
PP
c8
2158 2719 mt 2092 2630 L
2092 2630 mt 2179 2498 L
1 sg
-67 -254 87 -132 2092 2630 3 MP
PP
c8
2092 2630 mt 2179 2498 L
2179 2498 mt 2112 2244 L
1 sg
87 157 -67 133 2080 893 3 MP
PP
c8
2080  893 mt 2013 1026 L
2013 1026 mt 2100 1183 L
1 sg
-67 -34 87 -26 2086 1086 3 MP
PP
c8
2086 1086 mt 2173 1060 L
2173 1060 mt 2106 1026 L
1 sg
87 -26 -66 -55 2152 1141 3 MP
PP
c8
2152 1141 mt 2086 1086 L
2086 1086 mt 2173 1060 L
1 sg
-66 -89 86 -45 2072 2764 3 MP
PP
c8
2072 2764 mt 2158 2719 L
2158 2719 mt 2092 2630 L
1 sg
86 -45 -66 -41 2138 2805 3 MP
PP
c8
2138 2805 mt 2072 2764 L
2072 2764 mt 2158 2719 L
1 sg
-67 341 87 157 2013 1026 3 MP
PP
c8
2013 1026 mt 2100 1183 L
2100 1183 mt 2033 1524 L
1 sg
87 231 -67 341 2100 1183 3 MP
PP
c8
2100 1183 mt 2033 1524 L
2033 1524 mt 2120 1755 L
1 sg
87 -90 -67 -321 2132 1552 3 MP
PP
c8
2132 1552 mt 2065 1231 L
2065 1231 mt 2152 1141 L
1 sg
-66 -55 87 -90 2065 1231 3 MP
PP
c8
2065 1231 mt 2152 1141 L
2152 1141 mt 2086 1086 L
1 sg
-67 133 87 -23 1993 916 3 MP
PP
c8
1993  916 mt 2080  893 L
2080  893 mt 2013 1026 L
1 sg
87 -26 -67 -34 2126 966 3 MP
PP
c8
2126  966 mt 2059  932 L
2059  932 mt 2146  906 L
1 sg
-66 -13 87 -26 2059 932 3 MP
PP
c8
2059  932 mt 2146  906 L
2146  906 mt 2080  893 L
1 sg
87 -28 -67 -34 2118 2867 3 MP
PP
c8
2118 2867 mt 2051 2833 L
2051 2833 mt 2138 2805 L
1 sg
-66 -41 87 -28 2051 2833 3 MP
PP
c8
2051 2833 mt 2138 2805 L
2138 2805 mt 2072 2764 L
1 sg
86 -26 -66 -34 2027 1976 3 MP
PP
c8
2027 1976 mt 1961 1942 L
1961 1942 mt 2047 1916 L
1 sg
86 132 -66 285 2033 1524 3 MP
PP
c8
2033 1524 mt 1967 1809 L
1967 1809 mt 2053 1941 L
1 sg
-67 -28 87 -11 1920 2040 3 MP
PP
c8
1920 2040 mt 2007 2029 L
2007 2029 mt 1940 2001 L
1 sg
87 -11 -67 15 1987 2025 3 MP
PP
c8
1987 2025 mt 1920 2040 L
1920 2040 mt 2007 2029 L
1 sg
-67 -13 87 17 1987 2025 3 MP
PP
c8
1987 2025 mt 2074 2042 L
2074 2042 mt 2007 2029 L
1 sg
87 -25 -67 -28 2007 2029 3 MP
PP
c8
2007 2029 mt 1940 2001 L
1940 2001 mt 2027 1976 L
1 sg
-66 -34 87 -25 1940 2001 3 MP
PP
c8
1940 2001 mt 2027 1976 L
2027 1976 mt 1961 1942 L
1 sg
87 17 -66 84 2053 1941 3 MP
PP
c8
2053 1941 mt 1987 2025 L
1987 2025 mt 2074 2042 L
1 sg
-67 186 87 231 2033 1524 3 MP
PP
c8
2033 1524 mt 2120 1755 L
2120 1755 mt 2053 1941 L
1 sg
87 -345 -67 -347 2112 2244 3 MP
PP
c8
2112 2244 mt 2045 1897 L
2045 1897 mt 2132 1552 L
1 sg
-67 -321 87 -345 2045 1897 3 MP
PP
c8
2045 1897 mt 2132 1552 L
2132 1552 mt 2065 1231 L
1 sg
-67 -34 87 -26 2039 992 3 MP
PP
c8
2039  992 mt 2126  966 L
2126  966 mt 2059  932 L
1 sg
87 -26 -67 -34 2106 1026 3 MP
PP
c8
2106 1026 mt 2039  992 L
2039  992 mt 2126  966 L
1 sg
87 -27 -67 -34 2098 2928 3 MP
PP
c8
2098 2928 mt 2031 2894 L
2031 2894 mt 2118 2867 L
1 sg
-67 -34 87 -27 2031 2894 3 MP
PP
c8
2031 2894 mt 2118 2867 L
2118 2867 mt 2051 2833 L
1 sg
-66 84 86 132 1967 1809 3 MP
PP
c8
1967 1809 mt 2053 1941 L
2053 1941 mt 1987 2025 L
1 sg
-67 -347 87 -230 2025 2474 3 MP
PP
c8
2025 2474 mt 2112 2244 L
2112 2244 mt 2045 1897 L
1 sg
87 -230 -67 -156 2092 2630 3 MP
PP
c8
2092 2630 mt 2025 2474 L
2025 2474 mt 2112 2244 L
1 sg
-67 -34 87 -26 2019 1052 3 MP
PP
c8
2019 1052 mt 2106 1026 L
2106 1026 mt 2039  992 L
1 sg
87 -26 -67 -34 2086 1086 3 MP
PP
c8
2086 1086 mt 2019 1052 L
2019 1052 mt 2106 1026 L
1 sg
-67 -34 87 -26 2011 2954 3 MP
PP
c8
2011 2954 mt 2098 2928 L
2098 2928 mt 2031 2894 L
1 sg
-67 -156 87 -79 2005 2709 3 MP
PP
c8
2005 2709 mt 2092 2630 L
2092 2630 mt 2025 2474 L
1 sg
87 -79 -67 -55 2072 2764 3 MP
PP
c8
2072 2764 mt 2005 2709 L
2005 2709 mt 2092 2630 L
1 sg
87 192 -67 306 2013 1026 3 MP
PP
c8
2013 1026 mt 1946 1332 L
1946 1332 mt 2033 1524 L
1 sg
87 -47 -66 -98 2065 1231 3 MP
PP
c8
2065 1231 mt 1999 1133 L
1999 1133 mt 2086 1086 L
1 sg
-67 -34 87 -47 1999 1133 3 MP
PP
c8
1999 1133 mt 2086 1086 L
2086 1086 mt 2019 1052 L
1 sg
87 -23 -66 -16 2059 932 3 MP
PP
c8
2059  932 mt 1993  916 L
1993  916 mt 2080  893 L
1 sg
-67 -55 87 -33 1985 2797 3 MP
PP
c8
1985 2797 mt 2072 2764 L
2072 2764 mt 2005 2709 L
1 sg
87 -33 -66 -36 2051 2833 3 MP
PP
c8
2051 2833 mt 1985 2797 L
1985 2797 mt 2072 2764 L
1 sg
-66 285 87 192 1946 1332 3 MP
PP
c8
1946 1332 mt 2033 1524 L
2033 1524 mt 1967 1809 L
1 sg
-66 -98 86 -313 1979 1544 3 MP
PP
c8
1979 1544 mt 2065 1231 L
2065 1231 mt 1999 1133 L
1 sg
86 -313 -66 -353 2045 1897 3 MP
PP
c8
2045 1897 mt 1979 1544 L
1979 1544 mt 2065 1231 L
1 sg
87 -21 -67 131 1993 916 3 MP
PP
c8
1993  916 mt 1926 1047 L
1926 1047 mt 2013 1026 L
1 sg
-66 -16 86 -26 1973 958 3 MP
PP
c8
1973  958 mt 2059  932 L
2059  932 mt 1993  916 L
1 sg
86 -26 -66 -34 2039 992 3 MP
PP
c8
2039  992 mt 1973  958 L
1973  958 mt 2059  932 L
1 sg
-66 -36 87 -27 1964 2860 3 MP
PP
c8
1964 2860 mt 2051 2833 L
2051 2833 mt 1985 2797 L
1 sg
87 -27 -67 -34 2031 2894 3 MP
PP
c8
2031 2894 mt 1964 2860 L
1964 2860 mt 2051 2833 L
1 sg
86 -22 -66 -17 1920 2040 3 MP
PP
c8
1920 2040 mt 1854 2023 L
1854 2023 mt 1940 2001 L
1 sg
-66 -33 86 -22 1854 2023 3 MP
PP
c8
1854 2023 mt 1940 2001 L
1940 2001 mt 1874 1968 L
1 sg
87 -26 -66 -33 1940 2001 3 MP
PP
c8
1940 2001 mt 1874 1968 L
1874 1968 mt 1961 1942 L
1 sg
-67 15 87 51 1900 1974 3 MP
PP
c8
1900 1974 mt 1987 2025 L
1987 2025 mt 1920 2040 L
1 sg
87 51 -67 165 1967 1809 3 MP
PP
c8
1967 1809 mt 1900 1974 L
1900 1974 mt 1987 2025 L
1 sg
-66 -353 87 -339 1958 2236 3 MP
PP
c8
1958 2236 mt 2045 1897 L
2045 1897 mt 1979 1544 L
1 sg
87 -339 -67 -238 2025 2474 3 MP
PP
c8
2025 2474 mt 1958 2236 L
1958 2236 mt 2045 1897 L
1 sg
-67 306 87 -21 1926 1047 3 MP
PP
c8
1926 1047 mt 2013 1026 L
2013 1026 mt 1946 1332 L
1 sg
87 -26 -67 -34 2019 1052 3 MP
PP
c8
2019 1052 mt 1952 1018 L
1952 1018 mt 2039  992 L
1 sg
-66 -34 87 -26 1952 1018 3 MP
PP
c8
1952 1018 mt 2039  992 L
2039  992 mt 1973  958 L
1 sg
-67 -34 87 -26 1944 2920 3 MP
PP
c8
1944 2920 mt 2031 2894 L
2031 2894 mt 1964 2860 L
1 sg
87 -26 -67 -34 2011 2954 3 MP
PP
c8
2011 2954 mt 1944 2920 L
1944 2920 mt 2031 2894 L
1 sg
-67 -238 87 -148 1938 2622 3 MP
PP
c8
1938 2622 mt 2025 2474 L
2025 2474 mt 1958 2236 L
1 sg
87 -148 -67 -87 2005 2709 3 MP
PP
c8
2005 2709 mt 1938 2622 L
1938 2622 mt 2025 2474 L
1 sg
87 -45 -67 -36 1999 1133 3 MP
PP
c8
1999 1133 mt 1932 1097 L
1932 1097 mt 2019 1052 L
1 sg
-67 -34 87 -45 1932 1097 3 MP
PP
c8
1932 1097 mt 2019 1052 L
2019 1052 mt 1952 1018 L
1 sg
-67 -34 87 -26 1924 2980 3 MP
PP
c8
1924 2980 mt 2011 2954 L
2011 2954 mt 1944 2920 L
1 sg
87 -48 -67 -40 1985 2797 3 MP
PP
c8
1985 2797 mt 1918 2757 L
1918 2757 mt 2005 2709 L
1 sg
-67 -87 87 -48 1918 2757 3 MP
PP
c8
1918 2757 mt 2005 2709 L
2005 2709 mt 1938 2622 L
1 sg
-66 329 86 48 1860 1284 3 MP
PP
c8
1860 1284 mt 1946 1332 L
1946 1332 mt 1880 1661 L
1 sg
86 48 -66 237 1926 1047 3 MP
PP
c8
1926 1047 mt 1860 1284 L
1860 1284 mt 1946 1332 L
1 sg
87 148 -66 329 1946 1332 3 MP
PP
c8
1946 1332 mt 1880 1661 L
1880 1661 mt 1967 1809 L
1 sg
87 -194 -67 -217 1979 1544 3 MP
PP
c8
1979 1544 mt 1912 1327 L
1912 1327 mt 1999 1133 L
1 sg
-67 -36 87 -194 1912 1327 3 MP
PP
c8
1912 1327 mt 1999 1133 L
1999 1133 mt 1932 1097 L
1 sg
-67 131 87 -26 1906 942 3 MP
PP
c8
1906  942 mt 1993  916 L
1993  916 mt 1926 1047 L
1 sg
87 -26 -67 -16 1973 958 3 MP
PP
c8
1973  958 mt 1906  942 L
1906  942 mt 1993  916 L
1 sg
-67 -40 87 -28 1898 2825 3 MP
PP
c8
1898 2825 mt 1985 2797 L
1985 2797 mt 1918 2757 L
1 sg
87 -28 -66 -35 1964 2860 3 MP
PP
c8
1964 2860 mt 1898 2825 L
1898 2825 mt 1985 2797 L
1 sg
-67 -30 87 -17 1767 2040 3 MP
PP
c8
1767 2040 mt 1854 2023 L
1854 2023 mt 1787 1993 L
1 sg
87 -17 -66 3 1833 2037 3 MP
PP
c8
1833 2037 mt 1767 2040 L
1767 2040 mt 1854 2023 L
1 sg
87 -25 -67 -30 1854 2023 3 MP
PP
c8
1854 2023 mt 1787 1993 L
1787 1993 mt 1874 1968 L
1 sg
-67 63 87 76 1813 1898 3 MP
PP
c8
1813 1898 mt 1900 1974 L
1900 1974 mt 1833 2037 L
1 sg
87 76 -67 237 1880 1661 3 MP
PP
c8
1880 1661 mt 1813 1898 L
1813 1898 mt 1900 1974 L
1 sg
-66 -17 87 3 1833 2037 3 MP
PP
c8
1833 2037 mt 1920 2040 L
1920 2040 mt 1854 2023 L
1 sg
87 3 -67 63 1900 1974 3 MP
PP
c8
1900 1974 mt 1833 2037 L
1833 2037 mt 1920 2040 L
1 sg
-67 165 87 148 1880 1661 3 MP
PP
c8
1880 1661 mt 1967 1809 L
1967 1809 mt 1900 1974 L
1 sg
87 -401 -66 -291 1958 2236 3 MP
PP
c8
1958 2236 mt 1892 1945 L
1892 1945 mt 1979 1544 L
1 sg
-67 -217 87 -401 1892 1945 3 MP
PP
c8
1892 1945 mt 1979 1544 L
1979 1544 mt 1912 1327 L
1 sg
87 -23 -67 128 1906 942 3 MP
PP
c8
1906  942 mt 1839 1070 L
1839 1070 mt 1926 1047 L
1 sg
-67 -16 87 -26 1886 984 3 MP
PP
c8
1886  984 mt 1973  958 L
1973  958 mt 1906  942 L
1 sg
87 -26 -66 -34 1952 1018 3 MP
PP
c8
1952 1018 mt 1886  984 L
1886  984 mt 1973  958 L
1 sg
86 -26 -66 -34 1944 2920 3 MP
PP
c8
1944 2920 mt 1878 2886 L
1878 2886 mt 1964 2860 L
1 sg
-66 -35 86 -26 1878 2886 3 MP
PP
c8
1878 2886 mt 1964 2860 L
1964 2860 mt 1898 2825 L
1 sg
86 -246 -66 -140 1938 2622 3 MP
PP
c8
1938 2622 mt 1872 2482 L
1872 2482 mt 1958 2236 L
1 sg
-66 -291 86 -246 1872 2482 3 MP
PP
c8
1872 2482 mt 1958 2236 L
1958 2236 mt 1892 1945 L
1 sg
-66 237 87 -23 1839 1070 3 MP
PP
c8
1839 1070 mt 1926 1047 L
1926 1047 mt 1860 1284 L
1 sg
86 -44 -66 -35 1932 1097 3 MP
PP
c8
1932 1097 mt 1866 1062 L
1866 1062 mt 1952 1018 L
1 sg
-66 -34 86 -44 1866 1062 3 MP
PP
c8
1866 1062 mt 1952 1018 L
1952 1018 mt 1886  984 L
1 sg
-66 -34 87 -26 1857 2946 3 MP
PP
c8
1857 2946 mt 1944 2920 L
1944 2920 mt 1878 2886 L
1 sg
87 -26 -67 -34 1924 2980 3 MP
PP
c8
1924 2980 mt 1857 2946 L
1857 2946 mt 1944 2920 L
1 sg
-66 -140 87 -82 1851 2704 3 MP
PP
c8
1851 2704 mt 1938 2622 L
1938 2622 mt 1872 2482 L
1 sg
87 -82 -67 -53 1918 2757 3 MP
PP
c8
1918 2757 mt 1851 2704 L
1851 2704 mt 1938 2622 L
1 sg
87 -28 -66 242 1839 1070 3 MP
PP
c8
1839 1070 mt 1773 1312 L
1773 1312 mt 1860 1284 L
1 sg
-66 -35 87 -191 1845 1288 3 MP
PP
c8
1845 1288 mt 1932 1097 L
1932 1097 mt 1866 1062 L
1 sg
-67 286 87 -28 1773 1312 3 MP
PP
c8
1773 1312 mt 1860 1284 L
1860 1284 mt 1793 1570 L
1 sg
87 91 -67 286 1860 1284 3 MP
PP
c8
1860 1284 mt 1793 1570 L
1793 1570 mt 1880 1661 L
1 sg
87 -191 -67 -39 1912 1327 3 MP
PP
c8
1912 1327 mt 1845 1288 L
1845 1288 mt 1932 1097 L
1 sg
87 -32 -67 -36 1898 2825 3 MP
PP
c8
1898 2825 mt 1831 2789 L
1831 2789 mt 1918 2757 L
1 sg
-67 -53 87 -32 1831 2789 3 MP
PP
c8
1831 2789 mt 1918 2757 L
1918 2757 mt 1851 2704 L
1 sg
-67 237 87 91 1793 1570 3 MP
PP
c8
1793 1570 mt 1880 1661 L
1880 1661 mt 1813 1898 L
1 sg
-67 -39 87 -365 1825 1692 3 MP
PP
c8
1825 1692 mt 1912 1327 L
1912 1327 mt 1845 1288 L
1 sg
87 -365 -67 -253 1892 1945 3 MP
PP
c8
1892 1945 mt 1825 1692 L
1825 1692 mt 1912 1327 L
1 sg
-67 128 87 -27 1819 969 3 MP
PP
c8
1819  969 mt 1906  942 L
1906  942 mt 1839 1070 L
1 sg
87 -27 -67 -15 1886 984 3 MP
PP
c8
1886  984 mt 1819  969 L
1819  969 mt 1906  942 L
1 sg
87 -27 -67 -34 1878 2886 3 MP
PP
c8
1878 2886 mt 1811 2852 L
1811 2852 mt 1898 2825 L
1 sg
-67 -36 87 -27 1811 2852 3 MP
PP
c8
1811 2852 mt 1898 2825 L
1898 2825 mt 1831 2789 L
1 sg
87 -345 -67 -192 1872 2482 3 MP
PP
c8
1872 2482 mt 1805 2290 L
1805 2290 mt 1892 1945 L
1 sg
87 -24 -67 -23 1767 2040 3 MP
PP
c8
1767 2040 mt 1700 2017 L
1700 2017 mt 1787 1993 L
1 sg
-66 3 86 21 1747 2016 3 MP
PP
c8
1747 2016 mt 1833 2037 L
1833 2037 mt 1767 2040 L
1 sg
86 21 -66 118 1813 1898 3 MP
PP
c8
1813 1898 mt 1747 2016 L
1747 2016 mt 1833 2037 L
1 sg
-67 -253 87 -345 1805 2290 3 MP
PP
c8
1805 2290 mt 1892 1945 L
1892 1945 mt 1825 1692 L
1 sg
86 -24 -66 125 1819 969 3 MP
PP
c8
1819  969 mt 1753 1094 L
1753 1094 mt 1839 1070 L
1 sg
87 -45 -67 -33 1866 1062 3 MP
PP
c8
1866 1062 mt 1799 1029 L
1799 1029 mt 1886  984 L
1 sg
-67 -15 87 -45 1799 1029 3 MP
PP
c8
1799 1029 mt 1886  984 L
1886  984 mt 1819  969 L
1 sg
87 -26 -66 -34 1857 2946 3 MP
PP
c8
1857 2946 mt 1791 2912 L
1791 2912 mt 1878 2886 L
1 sg
-67 -34 87 -26 1791 2912 3 MP
PP
c8
1791 2912 mt 1878 2886 L
1878 2886 mt 1811 2852 L
1 sg
-67 -192 87 -144 1785 2626 3 MP
PP
c8
1785 2626 mt 1872 2482 L
1872 2482 mt 1805 2290 L
1 sg
87 -144 -66 -78 1851 2704 3 MP
PP
c8
1851 2704 mt 1785 2626 L
1785 2626 mt 1872 2482 L
1 sg
-66 242 86 -24 1753 1094 3 MP
PP
c8
1753 1094 mt 1839 1070 L
1839 1070 mt 1773 1312 L
1 sg
87 -188 -66 -38 1845 1288 3 MP
PP
c8
1845 1288 mt 1779 1250 L
1779 1250 mt 1866 1062 L
1 sg
-67 -33 87 -188 1779 1250 3 MP
PP
c8
1779 1250 mt 1866 1062 L
1866 1062 mt 1799 1029 L
1 sg
86 -46 -66 -39 1831 2789 3 MP
PP
c8
1831 2789 mt 1765 2750 L
1765 2750 mt 1851 2704 L
1 sg
-66 -78 86 -46 1765 2750 3 MP
PP
c8
1765 2750 mt 1851 2704 L
1851 2704 mt 1785 2626 L
1 sg
87 -10 -67 268 1773 1312 3 MP
PP
c8
1773 1312 mt 1706 1580 L
1706 1580 mt 1793 1570 L
1 sg
-67 257 87 -10 1706 1580 3 MP
PP
c8
1706 1580 mt 1793 1570 L
1793 1570 mt 1726 1827 L
1 sg
87 71 -67 257 1793 1570 3 MP
PP
c8
1793 1570 mt 1726 1827 L
1726 1827 mt 1813 1898 L
1 sg
86 -296 -66 -108 1825 1692 3 MP
PP
c8
1825 1692 mt 1759 1584 L
1759 1584 mt 1845 1288 L
1 sg
-66 -38 86 -296 1759 1584 3 MP
PP
c8
1759 1584 mt 1845 1288 L
1845 1288 mt 1779 1250 L
1 sg
87 -28 -67 -35 1811 2852 3 MP
PP
c8
1811 2852 mt 1744 2817 L
1744 2817 mt 1831 2789 L
1 sg
-66 -39 87 -28 1744 2817 3 MP
PP
c8
1744 2817 mt 1831 2789 L
1831 2789 mt 1765 2750 L
1 sg
-67 -23 87 -9 1680 2049 3 MP
PP
c8
1680 2049 mt 1767 2040 L
1767 2040 mt 1700 2017 L
1 sg
87 -9 -67 33 1747 2016 3 MP
PP
c8
1747 2016 mt 1680 2049 L
1680 2049 mt 1767 2040 L
1 sg
-66 118 87 71 1726 1827 3 MP
PP
c8
1726 1827 mt 1813 1898 L
1813 1898 mt 1747 2016 L
1 sg
87 -390 -67 -208 1805 2290 3 MP
PP
c8
1805 2290 mt 1738 2082 L
1738 2082 mt 1825 1692 L
1 sg
87 29 -66 160 1726 1827 3 MP
PP
c8
1726 1827 mt 1660 1987 L
1660 1987 mt 1747 2016 L
1 sg
87 -21 -67 -11 1680 2049 3 MP
PP
c8
1680 2049 mt 1613 2038 L
1613 2038 mt 1700 2017 L
1 sg
-67 33 87 29 1660 1987 3 MP
PP
c8
1660 1987 mt 1747 2016 L
1747 2016 mt 1680 2049 L
1 sg
-66 -108 87 -390 1738 2082 3 MP
PP
c8
1738 2082 mt 1825 1692 L
1825 1692 mt 1759 1584 L
1 sg
-66 125 87 -29 1732 998 3 MP
PP
c8
1732  998 mt 1819  969 L
1819  969 mt 1753 1094 L
1 sg
87 -29 -67 -31 1799 1029 3 MP
PP
c8
1799 1029 mt 1732  998 L
1732  998 mt 1819  969 L
1 sg
-67 -35 87 -26 1724 2878 3 MP
PP
c8
1724 2878 mt 1811 2852 L
1811 2852 mt 1744 2817 L
1 sg
87 -26 -67 -34 1791 2912 3 MP
PP
c8
1791 2912 mt 1724 2878 L
1724 2878 mt 1811 2852 L
1 sg
-67 -208 87 -225 1718 2515 3 MP
PP
c8
1718 2515 mt 1805 2290 L
1805 2290 mt 1738 2082 L
1 sg
87 -225 -67 -111 1785 2626 3 MP
PP
c8
1785 2626 mt 1718 2515 L
1718 2515 mt 1805 2290 L
1 sg
-67 244 87 -26 1666 1120 3 MP
PP
c8
1666 1120 mt 1753 1094 L
1753 1094 mt 1686 1338 L
1 sg
87 -26 -67 244 1753 1094 3 MP
PP
c8
1753 1094 mt 1686 1338 L
1686 1338 mt 1773 1312 L
1 sg
87 -185 -67 -36 1779 1250 3 MP
PP
c8
1779 1250 mt 1712 1214 L
1712 1214 mt 1799 1029 L
1 sg
87 -26 -66 122 1732 998 3 MP
PP
c8
1732  998 mt 1666 1120 L
1666 1120 mt 1753 1094 L
1 sg
-67 -31 87 -185 1712 1214 3 MP
PP
c8
1712 1214 mt 1799 1029 L
1799 1029 mt 1732  998 L
1 sg
-67 -111 87 -76 1698 2702 3 MP
PP
c8
1698 2702 mt 1785 2626 L
1785 2626 mt 1718 2515 L
1 sg
87 -76 -67 -48 1765 2750 3 MP
PP
c8
1765 2750 mt 1698 2702 L
1698 2702 mt 1785 2626 L
1 sg
87 -27 -67 269 1686 1338 3 MP
PP
c8
1686 1338 mt 1619 1607 L
1619 1607 mt 1706 1580 L
1 sg
-67 268 87 -26 1686 1338 3 MP
PP
c8
1686 1338 mt 1773 1312 L
1773 1312 mt 1706 1580 L
1 sg
-67 -36 87 -303 1692 1553 3 MP
PP
c8
1692 1553 mt 1779 1250 L
1779 1250 mt 1712 1214 L
1 sg
87 -303 -67 -31 1759 1584 3 MP
PP
c8
1759 1584 mt 1692 1553 L
1692 1553 mt 1779 1250 L
1 sg
87 -32 -66 -35 1744 2817 3 MP
PP
c8
1744 2817 mt 1678 2782 L
1678 2782 mt 1765 2750 L
1 sg
-67 -48 87 -32 1678 2782 3 MP
PP
c8
1678 2782 mt 1765 2750 L
1765 2750 mt 1698 2702 L
1 sg
86 18 -66 229 1706 1580 3 MP
PP
c8
1706 1580 mt 1640 1809 L
1640 1809 mt 1726 1827 L
1 sg
-66 160 86 18 1640 1809 3 MP
PP
c8
1640 1809 mt 1726 1827 L
1726 1827 mt 1660 1987 L
1 sg
87 -346 -66 -152 1738 2082 3 MP
PP
c8
1738 2082 mt 1672 1930 L
1672 1930 mt 1759 1584 L
1 sg
-66 229 87 -27 1619 1607 3 MP
PP
c8
1619 1607 mt 1706 1580 L
1706 1580 mt 1640 1809 L
1 sg
-67 -31 87 -346 1672 1930 3 MP
PP
c8
1672 1930 mt 1759 1584 L
1759 1584 mt 1692 1553 L
1 sg
-66 -35 86 -27 1658 2844 3 MP
PP
c8
1658 2844 mt 1744 2817 L
1744 2817 mt 1678 2782 L
1 sg
86 -27 -66 -34 1724 2878 3 MP
PP
c8
1724 2878 mt 1658 2844 L
1658 2844 mt 1744 2817 L
1 sg
87 -18 -67 5 1593 2051 3 MP
PP
c8
1593 2051 mt 1526 2056 L
1526 2056 mt 1613 2038 L
1 sg
-67 -11 87 -2 1593 2051 3 MP
PP
c8
1593 2051 mt 1680 2049 L
1680 2049 mt 1613 2038 L
1 sg
87 -2 -67 64 1660 1987 3 MP
PP
c8
1660 1987 mt 1593 2051 L
1593 2051 mt 1680 2049 L
1 sg
-66 -152 86 -296 1652 2378 3 MP
PP
c8
1652 2378 mt 1738 2082 L
1738 2082 mt 1672 1930 L
1 sg
86 -296 -66 -137 1718 2515 3 MP
PP
c8
1718 2515 mt 1652 2378 L
1652 2378 mt 1738 2082 L
1 sg
-67 242 87 -67 1579 1187 3 MP
PP
c8
1579 1187 mt 1666 1120 L
1666 1120 mt 1599 1362 L
1 sg
87 -24 -67 242 1666 1120 3 MP
PP
c8
1666 1120 mt 1599 1362 L
1599 1362 mt 1686 1338 L
1 sg
86 -182 -66 -34 1712 1214 3 MP
PP
c8
1712 1214 mt 1646 1180 L
1646 1180 mt 1732  998 L
1 sg
-66 122 86 -182 1646 1180 3 MP
PP
c8
1646 1180 mt 1732  998 L
1732  998 mt 1666 1120 L
1 sg
87 -123 -67 -64 1698 2702 3 MP
PP
c8
1698 2702 mt 1631 2638 L
1631 2638 mt 1718 2515 L
1 sg
-66 -137 87 -123 1631 2638 3 MP
PP
c8
1631 2638 mt 1718 2515 L
1718 2515 mt 1652 2378 L
1 sg
-67 269 87 -24 1599 1362 3 MP
PP
c8
1599 1362 mt 1686 1338 L
1686 1338 mt 1619 1607 L
1 sg
-66 -34 87 -305 1625 1519 3 MP
PP
c8
1625 1519 mt 1712 1214 L
1712 1214 mt 1646 1180 L
1 sg
87 -305 -67 -34 1692 1553 3 MP
PP
c8
1692 1553 mt 1625 1519 L
1625 1519 mt 1712 1214 L
1 sg
-67 -64 87 -42 1611 2744 3 MP
PP
c8
1611 2744 mt 1698 2702 L
1698 2702 mt 1631 2638 L
1 sg
87 -42 -67 -38 1678 2782 3 MP
PP
c8
1678 2782 mt 1611 2744 L
1611 2744 mt 1698 2702 L
1 sg
87 -25 -66 227 1619 1607 3 MP
PP
c8
1619 1607 mt 1553 1834 L
1553 1834 mt 1640 1809 L
1 sg
-67 161 87 -25 1553 1834 3 MP
PP
c8
1553 1834 mt 1640 1809 L
1640 1809 mt 1573 1970 L
1 sg
-67 -34 87 -327 1605 1880 3 MP
PP
c8
1605 1880 mt 1692 1553 L
1692 1553 mt 1625 1519 L
1 sg
87 17 -67 161 1640 1809 3 MP
PP
c8
1640 1809 mt 1573 1970 L
1573 1970 mt 1660 1987 L
1 sg
87 -327 -67 -50 1672 1930 3 MP
PP
c8
1672 1930 mt 1605 1880 L
1605 1880 mt 1692 1553 L
1 sg
87 -27 -67 -35 1658 2844 3 MP
PP
c8
1658 2844 mt 1591 2809 L
1591 2809 mt 1678 2782 L
1 sg
-67 -38 87 -27 1591 2809 3 MP
PP
c8
1591 2809 mt 1678 2782 L
1678 2782 mt 1611 2744 L
1 sg
-67 64 87 17 1573 1970 3 MP
PP
c8
1573 1970 mt 1660 1987 L
1660 1987 mt 1593 2051 L
1 sg
87 -318 -67 -130 1652 2378 3 MP
PP
c8
1652 2378 mt 1585 2248 L
1585 2248 mt 1672 1930 L
1 sg
-67 -50 87 -318 1585 2248 3 MP
PP
c8
1585 2248 mt 1672 1930 L
1672 1930 mt 1605 1880 L
1 sg
87 -67 -67 7 1646 1180 3 MP
PP
c8
1646 1180 mt 1579 1187 L
1579 1187 mt 1666 1120 L
1 sg
87 -179 -66 -81 1631 2638 3 MP
PP
c8
1631 2638 mt 1565 2557 L
1565 2557 mt 1652 2378 L
1 sg
-67 -130 87 -179 1565 2557 3 MP
PP
c8
1565 2557 mt 1652 2378 L
1652 2378 mt 1585 2248 L
1 sg
-66 273 87 -25 1512 1387 3 MP
PP
c8
1512 1387 mt 1599 1362 L
1599 1362 mt 1533 1635 L
1 sg
87 -25 -67 200 1579 1187 3 MP
PP
c8
1579 1187 mt 1512 1387 L
1512 1387 mt 1599 1362 L
1 sg
86 -28 -66 273 1599 1362 3 MP
PP
c8
1599 1362 mt 1533 1635 L
1533 1635 mt 1619 1607 L
1 sg
87 -302 -66 -37 1625 1519 3 MP
PP
c8
1625 1519 mt 1559 1482 L
1559 1482 mt 1646 1180 L
1 sg
-67 7 87 -302 1559 1482 3 MP
PP
c8
1559 1482 mt 1646 1180 L
1646 1180 mt 1579 1187 L
1 sg
86 -63 -66 -43 1611 2744 3 MP
PP
c8
1611 2744 mt 1545 2701 L
1545 2701 mt 1631 2638 L
1 sg
-66 -81 86 -63 1545 2701 3 MP
PP
c8
1545 2701 mt 1631 2638 L
1631 2638 mt 1565 2557 L
1 sg
-67 153 87 -27 1466 1861 3 MP
PP
c8
1466 1861 mt 1553 1834 L
1553 1834 mt 1486 1987 L
1 sg
87 -27 -67 226 1533 1635 3 MP
PP
c8
1533 1635 mt 1466 1861 L
1466 1861 mt 1553 1834 L
1 sg
87 -17 -67 153 1553 1834 3 MP
PP
c8
1553 1834 mt 1486 1987 L
1486 1987 mt 1573 1970 L
1 sg
-66 227 86 -28 1533 1635 3 MP
PP
c8
1533 1635 mt 1619 1607 L
1619 1607 mt 1553 1834 L
1 sg
86 -328 -66 -33 1605 1880 3 MP
PP
c8
1605 1880 mt 1539 1847 L
1539 1847 mt 1625 1519 L
1 sg
-66 -37 86 -328 1539 1847 3 MP
PP
c8
1539 1847 mt 1625 1519 L
1625 1519 mt 1559 1482 L
1 sg
87 -31 -67 -34 1591 2809 3 MP
PP
c8
1591 2809 mt 1524 2775 L
1524 2775 mt 1611 2744 L
1 sg
-66 -43 87 -31 1524 2775 3 MP
PP
c8
1524 2775 mt 1611 2744 L
1611 2744 mt 1545 2701 L
1 sg
-67 5 87 -1 1506 2052 3 MP
PP
c8
1506 2052 mt 1593 2051 L
1593 2051 mt 1526 2056 L
1 sg
87 -1 -67 82 1573 1970 3 MP
PP
c8
1573 1970 mt 1506 2052 L
1506 2052 mt 1593 2051 L
1 sg
87 -289 -67 -79 1585 2248 3 MP
PP
c8
1585 2248 mt 1518 2169 L
1518 2169 mt 1605 1880 L
1 sg
86 -16 -66 20 1506 2052 3 MP
PP
c8
1506 2052 mt 1440 2072 L
1440 2072 mt 1526 2056 L
1 sg
-67 82 87 -17 1486 1987 3 MP
PP
c8
1486 1987 mt 1573 1970 L
1573 1970 mt 1506 2052 L
1 sg
-66 -33 87 -289 1518 2169 3 MP
PP
c8
1518 2169 mt 1605 1880 L
1605 1880 mt 1539 1847 L
1 sg
87 -220 -67 -89 1565 2557 3 MP
PP
c8
1565 2557 mt 1498 2468 L
1498 2468 mt 1585 2248 L
1 sg
-67 -79 87 -220 1498 2468 3 MP
PP
c8
1498 2468 mt 1585 2248 L
1585 2248 mt 1518 2169 L
1 sg
-66 273 87 -114 1425 1501 3 MP
PP
c8
1425 1501 mt 1512 1387 L
1512 1387 mt 1446 1660 L
1 sg
87 -114 -67 54 1492 1447 3 MP
PP
c8
1492 1447 mt 1425 1501 L
1425 1501 mt 1512 1387 L
1 sg
87 -25 -66 273 1512 1387 3 MP
PP
c8
1512 1387 mt 1446 1660 L
1446 1660 mt 1533 1635 L
1 sg
-67 200 87 -260 1492 1447 3 MP
PP
c8
1492 1447 mt 1579 1187 L
1579 1187 mt 1512 1387 L
1 sg
87 -260 -67 -35 1559 1482 3 MP
PP
c8
1559 1482 mt 1492 1447 L
1492 1447 mt 1579 1187 L
1 sg
-67 -89 87 -93 1478 2650 3 MP
PP
c8
1478 2650 mt 1565 2557 L
1565 2557 mt 1498 2468 L
1 sg
87 -93 -67 -51 1545 2701 3 MP
PP
c8
1545 2701 mt 1478 2650 L
1478 2650 mt 1565 2557 L
1 sg
-67 226 87 -25 1446 1660 3 MP
PP
c8
1446 1660 mt 1533 1635 L
1533 1635 mt 1466 1861 L
1 sg
-67 -35 87 -333 1472 1815 3 MP
PP
c8
1472 1815 mt 1559 1482 L
1559 1482 mt 1492 1447 L
1 sg
87 -333 -67 -32 1539 1847 3 MP
PP
c8
1539 1847 mt 1472 1815 L
1472 1815 mt 1559 1482 L
1 sg
87 -37 -66 -37 1524 2775 3 MP
PP
c8
1524 2775 mt 1458 2738 L
1458 2738 mt 1545 2701 L
1 sg
-67 -51 87 -37 1458 2738 3 MP
PP
c8
1458 2738 mt 1545 2701 L
1545 2701 mt 1478 2650 L
1 sg
87 -12 -67 77 1486 1987 3 MP
PP
c8
1486 1987 mt 1419 2064 L
1419 2064 mt 1506 2052 L
1 sg
-66 20 87 -12 1419 2064 3 MP
PP
c8
1419 2064 mt 1506 2052 L
1506 2052 mt 1440 2072 L
1 sg
87 -288 -66 -34 1518 2169 3 MP
PP
c8
1518 2169 mt 1452 2135 L
1452 2135 mt 1539 1847 L
1 sg
87 -26 -67 152 1466 1861 3 MP
PP
c8
1466 1861 mt 1399 2013 L
1399 2013 mt 1486 1987 L
1 sg
-67 77 87 -26 1399 2013 3 MP
PP
c8
1399 2013 mt 1486 1987 L
1486 1987 mt 1419 2064 L
1 sg
-67 -32 87 -288 1452 2135 3 MP
PP
c8
1452 2135 mt 1539 1847 L
1539 1847 mt 1472 1815 L
1 sg
-66 -34 86 -222 1432 2391 3 MP
PP
c8
1432 2391 mt 1518 2169 L
1518 2169 mt 1452 2135 L
1 sg
86 -222 -66 -77 1498 2468 3 MP
PP
c8
1498 2468 mt 1432 2391 L
1432 2391 mt 1518 2169 L
1 sg
87 -124 -67 -58 1478 2650 3 MP
PP
c8
1478 2650 mt 1411 2592 L
1411 2592 mt 1498 2468 L
1 sg
-66 -77 87 -124 1411 2592 3 MP
PP
c8
1411 2592 mt 1498 2468 L
1498 2468 mt 1432 2391 L
1 sg
-67 228 87 -33 1359 1693 3 MP
PP
c8
1359 1693 mt 1446 1660 L
1446 1660 mt 1379 1888 L
1 sg
87 -33 -66 192 1425 1501 3 MP
PP
c8
1425 1501 mt 1359 1693 L
1359 1693 mt 1446 1660 L
1 sg
-67 54 87 -333 1405 1780 3 MP
PP
c8
1405 1780 mt 1492 1447 L
1492 1447 mt 1425 1501 L
1 sg
87 -27 -67 228 1446 1660 3 MP
PP
c8
1446 1660 mt 1379 1888 L
1379 1888 mt 1466 1861 L
1 sg
87 -333 -67 -35 1472 1815 3 MP
PP
c8
1472 1815 mt 1405 1780 L
1405 1780 mt 1492 1447 L
1 sg
-67 -58 87 -50 1391 2700 3 MP
PP
c8
1391 2700 mt 1478 2650 L
1478 2650 mt 1411 2592 L
1 sg
87 -50 -67 -38 1458 2738 3 MP
PP
c8
1458 2738 mt 1391 2700 L
1391 2700 mt 1478 2650 L
1 sg
86 -26 -66 77 1399 2013 3 MP
PP
c8
1399 2013 mt 1333 2090 L
1333 2090 mt 1419 2064 L
1 sg
-66 25 86 -26 1333 2090 3 MP
PP
c8
1333 2090 mt 1419 2064 L
1419 2064 mt 1353 2089 L
1 sg
87 -17 -66 25 1419 2064 3 MP
PP
c8
1419 2064 mt 1353 2089 L
1353 2089 mt 1440 2072 L
1 sg
-67 152 87 -27 1379 1888 3 MP
PP
c8
1379 1888 mt 1466 1861 L
1466 1861 mt 1399 2013 L
1 sg
87 -286 -67 -34 1452 2135 3 MP
PP
c8
1452 2135 mt 1385 2101 L
1385 2101 mt 1472 1815 L
1 sg
-66 77 87 -26 1312 2039 3 MP
PP
c8
1312 2039 mt 1399 2013 L
1399 2013 mt 1333 2090 L
1 sg
87 -26 -67 151 1379 1888 3 MP
PP
c8
1379 1888 mt 1312 2039 L
1312 2039 mt 1399 2013 L
1 sg
-67 -35 87 -286 1385 2101 3 MP
PP
c8
1385 2101 mt 1472 1815 L
1472 1815 mt 1405 1780 L
1 sg
87 -213 -67 -43 1432 2391 3 MP
PP
c8
1432 2391 mt 1365 2348 L
1365 2348 mt 1452 2135 L
1 sg
-67 -34 87 -213 1365 2348 3 MP
PP
c8
1365 2348 mt 1452 2135 L
1452 2135 mt 1385 2101 L
1 sg
87 -142 -66 -59 1411 2592 3 MP
PP
c8
1411 2592 mt 1345 2533 L
1345 2533 mt 1432 2391 L
1 sg
-67 -43 87 -142 1345 2533 3 MP
PP
c8
1345 2533 mt 1432 2391 L
1432 2391 mt 1365 2348 L
1 sg
-67 222 87 -132 1272 1825 3 MP
PP
c8
1272 1825 mt 1359 1693 L
1359 1693 mt 1292 1915 L
1 sg
87 -27 -67 222 1359 1693 3 MP
PP
c8
1359 1693 mt 1292 1915 L
1292 1915 mt 1379 1888 L
1 sg
-66 192 86 -252 1339 1753 3 MP
PP
c8
1339 1753 mt 1425 1501 L
1425 1501 mt 1359 1693 L
1 sg
86 -252 -66 -27 1405 1780 3 MP
PP
c8
1405 1780 mt 1339 1753 L
1339 1753 mt 1425 1501 L
1 sg
87 -65 -67 -43 1391 2700 3 MP
PP
c8
1391 2700 mt 1324 2657 L
1324 2657 mt 1411 2592 L
1 sg
-66 -59 87 -65 1324 2657 3 MP
PP
c8
1324 2657 mt 1411 2592 L
1411 2592 mt 1345 2533 L
1 sg
87 -26 -66 77 1312 2039 3 MP
PP
c8
1312 2039 mt 1246 2116 L
1246 2116 mt 1333 2090 L
1 sg
-67 151 87 -27 1292 1915 3 MP
PP
c8
1292 1915 mt 1379 1888 L
1379 1888 mt 1312 2039 L
1 sg
87 -288 -67 -33 1385 2101 3 MP
PP
c8
1385 2101 mt 1318 2068 L
1318 2068 mt 1405 1780 L
1 sg
-66 -27 87 -288 1318 2068 3 MP
PP
c8
1318 2068 mt 1405 1780 L
1405 1780 mt 1339 1753 L
1 sg
87 -212 -67 -35 1365 2348 3 MP
PP
c8
1365 2348 mt 1298 2313 L
1298 2313 mt 1385 2101 L
1 sg
-67 22 87 -26 1246 2116 3 MP
PP
c8
1246 2116 mt 1333 2090 L
1333 2090 mt 1266 2112 L
1 sg
87 -23 -67 22 1333 2090 3 MP
PP
c8
1333 2090 mt 1266 2112 L
1266 2112 mt 1353 2089 L
1 sg
-67 -33 87 -212 1298 2313 3 MP
PP
c8
1298 2313 mt 1385 2101 L
1385 2101 mt 1318 2068 L
1 sg
-67 -35 87 -137 1278 2485 3 MP
PP
c8
1278 2485 mt 1365 2348 L
1365 2348 mt 1298 2313 L
1 sg
87 -137 -67 -48 1345 2533 3 MP
PP
c8
1345 2533 mt 1278 2485 L
1278 2485 mt 1365 2348 L
1 sg
87 -132 -67 72 1339 1753 3 MP
PP
c8
1339 1753 mt 1272 1825 L
1272 1825 mt 1359 1693 L
1 sg
-67 -48 87 -80 1258 2613 3 MP
PP
c8
1258 2613 mt 1345 2533 L
1345 2533 mt 1278 2485 L
1 sg
87 -80 -66 -44 1324 2657 3 MP
PP
c8
1324 2657 mt 1258 2613 L
1258 2613 mt 1345 2533 L
1 sg
87 -47 -67 137 1272 1825 3 MP
PP
c8
1272 1825 mt 1205 1962 L
1205 1962 mt 1292 1915 L
1 sg
-66 150 87 -47 1205 1962 3 MP
PP
c8
1205 1962 mt 1292 1915 L
1292 1915 mt 1226 2065 L
1 sg
86 -26 -66 150 1292 1915 3 MP
PP
c8
1292 1915 mt 1226 2065 L
1226 2065 mt 1312 2039 L
1 sg
-66 77 86 -26 1226 2065 3 MP
PP
c8
1226 2065 mt 1312 2039 L
1312 2039 mt 1246 2116 L
1 sg
87 -282 -66 -33 1318 2068 3 MP
PP
c8
1318 2068 mt 1252 2035 L
1252 2035 mt 1339 1753 L
1 sg
-67 72 87 -282 1252 2035 3 MP
PP
c8
1252 2035 mt 1339 1753 L
1339 1753 mt 1272 1825 L
1 sg
86 -211 -66 -34 1298 2313 3 MP
PP
c8
1298 2313 mt 1232 2279 L
1232 2279 mt 1318 2068 L
1 sg
-67 23 87 -26 1159 2142 3 MP
PP
c8
1159 2142 mt 1246 2116 L
1246 2116 mt 1179 2139 L
1 sg
87 -26 -67 77 1226 2065 3 MP
PP
c8
1226 2065 mt 1159 2142 L
1159 2142 mt 1246 2116 L
1 sg
87 -27 -67 23 1246 2116 3 MP
PP
c8
1246 2116 mt 1179 2139 L
1179 2139 mt 1266 2112 L
1 sg
-66 -33 86 -211 1232 2279 3 MP
PP
c8
1232 2279 mt 1318 2068 L
1318 2068 mt 1252 2035 L
1 sg
87 -138 -67 -34 1278 2485 3 MP
PP
c8
1278 2485 mt 1211 2451 L
1211 2451 mt 1298 2313 L
1 sg
-66 -34 87 -138 1211 2451 3 MP
PP
c8
1211 2451 mt 1298 2313 L
1298 2313 mt 1232 2279 L
1 sg
-67 -34 87 -85 1191 2570 3 MP
PP
c8
1191 2570 mt 1278 2485 L
1278 2485 mt 1211 2451 L
1 sg
87 -85 -67 -43 1258 2613 3 MP
PP
c8
1258 2613 mt 1191 2570 L
1191 2570 mt 1278 2485 L
1 sg
87 -27 -66 130 1205 1962 3 MP
PP
c8
1205 1962 mt 1139 2092 L
1139 2092 mt 1226 2065 L
1 sg
87 -197 -67 -13 1252 2035 3 MP
PP
c8
1252 2035 mt 1185 2022 L
1185 2022 mt 1272 1825 L
1 sg
-67 137 87 -197 1185 2022 3 MP
PP
c8
1185 2022 mt 1272 1825 L
1272 1825 mt 1205 1962 L
1 sg
87 -26 -67 23 1159 2142 3 MP
PP
c8
1159 2142 mt 1092 2165 L
1092 2165 mt 1179 2139 L
1 sg
-67 77 87 -27 1139 2092 3 MP
PP
c8
1139 2092 mt 1226 2065 L
1226 2065 mt 1159 2142 L
1 sg
-67 -13 87 -210 1165 2245 3 MP
PP
c8
1165 2245 mt 1252 2035 L
1252 2035 mt 1185 2022 L
1 sg
87 -210 -67 -34 1232 2279 3 MP
PP
c8
1232 2279 mt 1165 2245 L
1165 2245 mt 1252 2035 L
1 sg
87 -138 -66 -34 1211 2451 3 MP
PP
c8
1211 2451 mt 1145 2417 L
1145 2417 mt 1232 2279 L
1 sg
-67 -34 87 -138 1145 2417 3 MP
PP
c8
1145 2417 mt 1232 2279 L
1232 2279 mt 1165 2245 L
1 sg
86 -82 -66 -37 1191 2570 3 MP
PP
c8
1191 2570 mt 1125 2533 L
1125 2533 mt 1211 2451 L
1 sg
-66 -34 86 -82 1125 2533 3 MP
PP
c8
1125 2533 mt 1211 2451 L
1211 2451 mt 1145 2417 L
1 sg
-66 130 86 -110 1119 2072 3 MP
PP
c8
1119 2072 mt 1205 1962 L
1205 1962 mt 1139 2092 L
1 sg
86 -110 -66 50 1185 2022 3 MP
PP
c8
1185 2022 mt 1119 2072 L
1119 2072 mt 1205 1962 L
1 sg
87 -26 -67 76 1139 2092 3 MP
PP
c8
1139 2092 mt 1072 2168 L
1072 2168 mt 1159 2142 L
1 sg
-67 23 87 -26 1072 2168 3 MP
PP
c8
1072 2168 mt 1159 2142 L
1159 2142 mt 1092 2165 L
1 sg
87 -190 -67 -33 1165 2245 3 MP
PP
c8
1165 2245 mt 1098 2212 L
1098 2212 mt 1185 2022 L
1 sg
-67 76 87 -52 1052 2144 3 MP
PP
c8
1052 2144 mt 1139 2092 L
1139 2092 mt 1072 2168 L
1 sg
87 -52 -67 72 1119 2072 3 MP
PP
c8
1119 2072 mt 1052 2144 L
1052 2144 mt 1139 2092 L
1 sg
-66 50 87 -190 1098 2212 3 MP
PP
c8
1098 2212 mt 1185 2022 L
1185 2022 mt 1119 2072 L
1 sg
-67 -33 87 -137 1078 2382 3 MP
PP
c8
1078 2382 mt 1165 2245 L
1165 2245 mt 1098 2212 L
1 sg
87 -137 -67 -35 1145 2417 3 MP
PP
c8
1145 2417 mt 1078 2382 L
1078 2382 mt 1165 2245 L
1 sg
-67 -35 87 -82 1058 2499 3 MP
PP
c8
1058 2499 mt 1145 2417 L
1145 2417 mt 1078 2382 L
1 sg
87 -82 -67 -34 1125 2533 3 MP
PP
c8
1125 2533 mt 1058 2499 L
1058 2499 mt 1145 2417 L
1 sg
87 -26 -66 20 985 2197 3 MP
PP
c8
 985 2197 mt  919 2217 L
 919 2217 mt 1006 2191 L
1 sg
87 -29 -67 53 1052 2144 3 MP
PP
c8
1052 2144 mt  985 2197 L
 985 2197 mt 1072 2168 L
1 sg
-66 23 87 -29 985 2197 3 MP
PP
c8
 985 2197 mt 1072 2168 L
1072 2168 mt 1006 2191 L
1 sg
86 -26 -66 23 1072 2168 3 MP
PP
c8
1072 2168 mt 1006 2191 L
1006 2191 mt 1092 2165 L
1 sg
87 -132 -66 -8 1098 2212 3 MP
PP
c8
1098 2212 mt 1032 2204 L
1032 2204 mt 1119 2072 L
1 sg
-67 72 87 -132 1032 2204 3 MP
PP
c8
1032 2204 mt 1119 2072 L
1119 2072 mt 1052 2144 L
1 sg
86 -136 -66 -34 1078 2382 3 MP
PP
c8
1078 2382 mt 1012 2348 L
1012 2348 mt 1098 2212 L
1 sg
-66 -8 86 -136 1012 2348 3 MP
PP
c8
1012 2348 mt 1098 2212 L
1098 2212 mt 1032 2204 L
1 sg
-66 -34 87 -83 991 2465 3 MP
PP
c8
 991 2465 mt 1078 2382 L
1078 2382 mt 1012 2348 L
1 sg
87 -83 -67 -34 1058 2499 3 MP
PP
c8
1058 2499 mt  991 2465 L
 991 2465 mt 1078 2382 L
1 sg
-67 53 87 -78 965 2222 3 MP
PP
c8
 965 2222 mt 1052 2144 L
1052 2144 mt  985 2197 L
1 sg
87 -78 -67 18 1032 2204 3 MP
PP
c8
1032 2204 mt  965 2222 L
 965 2222 mt 1052 2144 L
1 sg
-67 18 87 -113 945 2317 3 MP
PP
c8
 945 2317 mt 1032 2204 L
1032 2204 mt  965 2222 L
1 sg
87 -113 -67 -31 1012 2348 3 MP
PP
c8
1012 2348 mt  945 2317 L
 945 2317 mt 1032 2204 L
1 sg
87 -83 -66 -34 991 2465 3 MP
PP
c8
 991 2465 mt  925 2431 L
 925 2431 mt 1012 2348 L
1 sg
-67 -31 87 -83 925 2431 3 MP
PP
c8
 925 2431 mt 1012 2348 L
1012 2348 mt  945 2317 L
1 sg
-66 20 86 -44 899 2241 3 MP
PP
c8
 899 2241 mt  985 2197 L
 985 2197 mt  919 2217 L
1 sg
86 -44 -66 19 965 2222 3 MP
PP
c8
 965 2222 mt  899 2241 L
 899 2241 mt  985 2197 L
1 sg
87 -80 -67 -15 945 2317 3 MP
PP
c8
 945 2317 mt  878 2302 L
 878 2302 mt  965 2222 L
1 sg
-66 19 87 -80 878 2302 3 MP
PP
c8
 878 2302 mt  965 2222 L
 965 2222 mt  899 2241 L
1 sg
-67 -15 87 -80 858 2397 3 MP
PP
c8
 858 2397 mt  945 2317 L
 945 2317 mt  878 2302 L
1 sg
87 -80 -67 -34 925 2431 3 MP
PP
c8
 925 2431 mt  858 2397 L
 858 2397 mt  945 2317 L
1 sg
87 -29 -67 5 899 2241 3 MP
PP
c8
 899 2241 mt  832 2246 L
 832 2246 mt  919 2217 L
1 sg
87 -52 -66 -9 878 2302 3 MP
PP
c8
 878 2302 mt  812 2293 L
 812 2293 mt  899 2241 L
1 sg
-67 5 87 -52 812 2293 3 MP
PP
c8
 812 2293 mt  899 2241 L
 899 2241 mt  832 2246 L
1 sg
-66 -9 86 -65 792 2367 3 MP
PP
c8
 792 2367 mt  878 2302 L
 878 2302 mt  812 2293 L
1 sg
86 -65 -66 -30 858 2397 3 MP
PP
c8
 858 2397 mt  792 2367 L
 792 2367 mt  878 2302 L
1 sg
87 -36 -67 -11 812 2293 3 MP
PP
c8
 812 2293 mt  745 2282 L
 745 2282 mt  832 2246 L
1 sg
87 -49 -67 -25 792 2367 3 MP
PP
c8
 792 2367 mt  725 2342 L
 725 2342 mt  812 2293 L
1 sg
-67 -11 87 -49 725 2342 3 MP
PP
c8
 725 2342 mt  812 2293 L
 812 2293 mt  745 2282 L
1 sg
87 -36 -67 -24 725 2342 3 MP
PP
c8
 725 2342 mt  658 2318 L
 658 2318 mt  745 2282 L
gr

c8

end %%Color Dict

eplot
%%EndObject

epage
end

showpage

%%Trailer
%%EOF
