Dynamics: Bifurcation,master,unfinished,300000,-1,-1,-1,-1
Dynamics: Cascaded,master,proved,300000,6680,2745,3521,1
Dynamics: Closed cases,master,proved,300000,1752,496,422,1
Dynamics: Conserved quantity,master,proved,300000,3575,1550,541,1
Dynamics: Darboux equality,master,proved,300000,4578,1772,1361,1
Dynamics: Darboux inequality,master,proved,300000,3918,1454,1261,1
Dynamics: Double integrator,master,proved,300000,7297,2993,2847,1
Dynamics: Exponential decay (1),master,proved,300000,3090,1379,982,1
Dynamics: Exponential decay (2),master,proved,300000,3158,1417,982,1
Dynamics: Exponential decay (3),master,proved,300000,3507,1683,1135,1
Dynamics: Exponential growth (1),master,proved,300000,2965,1143,1022,1
Dynamics: Exponential growth (2),master,proved,300000,5835,1973,1440,1
Dynamics: Exponential growth (4),master,proved,300000,1509,573,276,1
Dynamics: Exponential growth (5),master,proved,300000,4038,1709,1097,1
Dynamics: Fractional Darboux equality,master,unfinished,300000,-1,-1,-1,-1
Dynamics: Nonlinear 1,master,proved,300000,3989,1754,1147,1
Dynamics: Nonlinear 2,master,proved,300000,1966,575,412,1
Dynamics: Nonlinear 4,master,proved,300000,2436,944,448,1
Dynamics: Nonlinear 5,master,proved,300000,1866,537,385,1
Dynamics: Nonlinear differential cut,master,proved,300000,5106,1973,1500,1
Dynamics: Open cases,master,proved,300000,7011,3631,2216,1
Dynamics: Parametric switching between two different damped oscillators,master,unfinished,300000,-1,-1,-1,-1
Dynamics: Riccati,master,proved,300000,2218,586,348,1
Dynamics: Rotational dynamics (1),master,proved,300000,1868,593,380,1
Dynamics: Rotational dynamics (2),master,proved,300000,4942,1875,834,1
Dynamics: Rotational dynamics (3),master,proved,300000,4302,1590,1310,1
Dynamics: Single integrator,master,proved,300000,1480,466,357,1
Dynamics: Single integrator time,master,proved,300000,1342,399,284,1
Dynamics: Spiral to equilibrium,master,proved,300000,2564,962,526,1
Dynamics: Triple integrator,master,proved,300000,12027,3424,2503,1
LICS: Example 1 Continuous car accelerates forward,master,proved,300000,625,36,70,1
LICS: Example 2 Single car drives forward,master,proved,300000,990,69,239,1
LICS: Example 3a event-triggered car drives forward,master,proved,300000,1045,64,218,1
LICS: Example 4a safe stopping of time-triggered car,master,proved,300000,20347,10574,6974,1
LICS: Example 4b progress of time-triggered car,master,unfinished,300000,-1,-1,-1,-1
LICS: Example 4c relative safety of time-triggered car,master,proved,300000,24542,12249,9659,1
LICS: Example 5 Controllability Equivalence,master,proved,300000,12364,5447,5545,1
LICS: Example 6 MPC Acceleration Equivalence,master,unfinished,300000,-1,-1,-1,-1
LICS: Example 7 Model-Predictive Control Design Car,master,unfinished,300000,-1,-1,-1,-1
STTT Tutorial: Example 1,master,proved,300000,1646,544,370,1
STTT Tutorial: Example 10,master,timeout,300000,-1,-1,-1,-1
STTT Tutorial: Example 2,master,proved,300000,1156,105,335,1
STTT Tutorial: Example 3a,master,proved,300000,25281,14197,9683,1
STTT Tutorial: Example 4a,master,proved,300000,1074,67,224,1
STTT Tutorial: Example 4b,master,proved,300000,777,34,122,1
STTT Tutorial: Example 4c,master,proved,300000,9565,4084,3774,1
STTT Tutorial: Example 5,master,proved,300000,37636,21173,13330,1
STTT Tutorial: Example 6,master,proved,300000,41183,24081,13789,1
STTT Tutorial: Example 7,master,proved,300000,45080,27429,14703,1
STTT Tutorial: Example 9a,master,proved,300000,8019,4730,1655,1
STTT Tutorial: Example 9b,master,proved,300000,21667,13345,4688,1
Static semantics correctness: Assignment 1,master,proved,300000,358,211,37,1
Static semantics correctness: Assignment 2,master,proved,300000,634,216,113,1
Static semantics correctness: Assignment 3,master,proved,300000,706,203,152,1
Static semantics correctness: Assignment 4,master,proved,300000,1400,414,318,1
Static semantics correctness: Assignment 5,master,proved,300000,229,0,28,1
Static semantics correctness: Assignment 6,master,proved,300000,946,473,142,1
Static semantics correctness: Assignment 7,master,proved,300000,6308,3062,3238,1
Static semantics correctness: Assignment 8,master,proved,300000,4100,1389,1823,1
Static semantics correctness: Assignment 9,master,unfinished,300000,-1,-1,-1,-1
1D Saddle Node,master,unfinished,300000,-1,-1,-1,-1
Ahmadi Parrilo Krstic,master,proved,300000,5666,2497,1236,1
Alongi Nelson Ex_4_1_9 page 143,master,proved,300000,6858,2755,1555,1
Arrowsmith Place Fig_1_29 page 14,master,proved,300000,3667,1192,1104,1
Arrowsmith Place Fig_1_30 page 14,master,proved,300000,1747,405,332,1
Arrowsmith Place Fig_1_31 page 14,master,proved,300000,6277,3008,2186,1
Arrowsmith Place Fig_1_32 page 14,master,proved,300000,6064,2922,2194,1
Arrowsmith Place Fig_1_35 page 17,master,proved,300000,7288,3742,2248,1
Arrowsmith Place Fig_3_11 page 83,master,proved,300000,5754,2030,1459,1
Arrowsmith Place Fig_3_1 page 72,master,proved,300000,6007,2336,1342,1
Arrowsmith Place Fig_3_5c page 79,master,proved,300000,2899,912,508,1
Arrowsmith Place Fig_3_5e page 79,master,unfinished,300000,-1,-1,-1,-1
Arrowsmith Place Fig_3_8 page 82,master,proved,300000,6543,2578,2325,1
Arrowsmith Place Fig_3_9 page 83,master,proved,300000,6549,2694,2325,1
Ben Sassi Girard 20104 Moore-Greitzer Jet,master,unfinished,300000,-1,-1,-1,-1
Ben Sassi Girard Sankaranarayanan 2014 Fitzhugh-Nagumo,master,unfinished,300000,-1,-1,-1,-1
Bhatia Szego Ex_2_4 page 68,master,unfinished,300000,-1,-1,-1,-1
Collin Goriely page 60,master,unfinished,300000,-1,-1,-1,-1
Dai Gan Xia Zhan JSC14 Ex. 1,master,proved,300000,5170,2312,1243,1
Dai Gan Xia Zhan JSC14 Ex. 2,master,unfinished,300000,-1,-1,-1,-1
Dai Gan Xia Zhan JSC14 Ex. 5,master,unfinished,300000,-1,-1,-1,-1
Darboux Christoffel Int Goriely page 58,master,unfinished,300000,-1,-1,-1,-1
Djaballah Chapoutot Kieffer Bouissou 2015 Ex. 1,master,unfinished,300000,-1,-1,-1,-1
Dumortier Llibre Artes Ex. 10_11,master,proved,300000,12742,5657,2281,1
Dumortier Llibre Artes Ex. 10_11b,master,proved,300000,10773,4456,2350,1
Dumortier Llibre Artes Ex. 10_15_i,master,proved,300000,14053,5677,1709,1
Dumortier Llibre Artes Ex. 10_15_ii,master,proved,300000,36613,16432,4328,1
Dumortier Llibre Artes Ex. 10_9,master,proved,300000,8626,3520,1240,1
Dumortier Llibre Artes Ex. 1_11a,master,proved,300000,8938,3487,2335,1
Dumortier Llibre Artes Ex. 1_11b,master,proved,300000,3331,1105,520,1
Dumortier Llibre Artes Ex. 1_9a,master,proved,300000,15422,8079,2293,1
Dumortier Llibre Artes Ex. 1_9b,master,proved,300000,4109,1393,525,1
Dumortier Llibre Artes Ex. 5_13,master,proved,300000,4006,1376,1144,1
Dumortier Llibre Artes Ex. 5_1_ii,master,proved,300000,4679,1625,1320,1
Dumortier Llibre Artes Ex. 5_2,master,unfinished,300000,-1,-1,-1,-1
Dumortier Llibre Artes Ex. 5_2_ii,master,proved,300000,14368,7541,2451,1
Fitzhugh Nagumo Ben Sassi Girard 2,master,unfinished,300000,-1,-1,-1,-1
Forsman Phd Ex 6_14 page 119,master,proved,300000,6034,2253,1240,1
Forsman Phd Ex 6_1 page 99,master,proved,300000,14400,7843,3920,1
Hamiltonian System 1,master,unfinished,300000,-1,-1,-1,-1
Invariant 3-dim sphere,master,unfinished,300000,-1,-1,-1,-1
KeYmaera Nonlinear 1,master,proved,300000,4669,1734,1214,1
KeYmaera Nonlinear Diffcut,master,proved,300000,4798,1723,1639,1
Liu Zhan Zhao Emsoft11 Example 25,master,unfinished,300000,-1,-1,-1,-1
Locally stable nonlinear system,master,unfinished,300000,-1,-1,-1,-1
Lotka Volterra Fourth Quadrant,master,proved,300000,688,47,57,1
MIT astronautics Lyapunov,master,unfinished,300000,-1,-1,-1,-1
Man Maccallum Goriely Page 57,master,proved,300000,5945,2169,1272,1
Prajna PhD Thesis 2-4-1 Page 31,master,proved,300000,6325,2522,1235,1
Shimizu Morioka System,master,proved,300000,4611,1385,1132,1
Stable Limit Cycle 1,master,proved,300000,7815,3786,2218,1
Stable Limit Cycle 2,master,unfinished,300000,-1,-1,-1,-1
Strogatz Example 6_3_2,master,proved,300000,17983,8914,2503,1
Strogatz Example 6_8_3,master,proved,300000,5482,2043,1240,1
Strogatz Exercise 6_1_5,master,unfinished,300000,-1,-1,-1,-1
Strogatz Exercise 6_1_9 Dipole,master,proved,300000,5513,2058,1232,1
Strogatz Exercise 6_6_1 Reversible System,master,proved,300000,9554,4164,2650,1
Strogatz Exercise 6_6_2 Limit Cycle,master,unfinished,300000,-1,-1,-1,-1
Strogatz Exercise 7_3_5,master,unfinished,300000,-1,-1,-1,-1
Synthetic Example 1,master,proved,300000,1829,430,332,1
Unstable Unit Circle 1,master,proved,300000,5282,1927,1324,1
Unstable Unit Circle 2,master,proved,300000,8671,3959,1572,1
Unstable Unit Circle 3,master,proved,300000,5609,2275,1372,1
Van der Pol Fourth Quadrant,master,unfinished,300000,-1,-1,-1,-1
Vinograd System Chicone 1_145 Page 80,master,proved,300000,7250,2845,2240,1
Wien bridge oscillator,master,unfinished,300000,-1,-1,-1,-1
Wiggins Example 17_1_2,master,proved,300000,6138,2407,1250,1
Wiggins Example 18_1_2,master,proved,300000,3865,1583,1060,1
Wiggins Example 18_7_3_n,master,unfinished,300000,-1,-1,-1,-1
ATC: 2 Aircraft Tangential Roundabout Maneuver,master,proved,1500000,17816,4140,2452,1
ATC: 3 Aircraft Tangential Roundabout Maneuver,master,proved,1500000,95601,15863,6250,1
ATC: 4 Aircraft Tangential Roundabout Maneuver,master,proved,1500000,366251,41457,10607,1
ETCS: Essentials,master,proved,1500000,23586,12790,7259,1
ETCS: Proposition 1 (Controllability),master,proved,1500000,16034,7958,6546,1
ETCS: Proposition 4 (Reactivity),master,proved,1500000,43740,25375,13137,1
Robot collision avoidance in two-dimensional space: Passive safety,master,timeout,1500000,-1,-1,-1,-1
Robot collision avoidance in two-dimensional space: Static safety,master,proved,1500000,278161,169275,53781,1
